<svg width="36" height="36" viewBox="0 0 36 36" fill="none" xmlns="http://www.w3.org/2000/svg">
<rect width="36" height="36" rx="18" fill="#E7EEFE"/>
<path d="M23 9H13C10.791 9 9 10.791 9 13V23C9 25.209 10.791 27 13 27H18.621V20.039H16.278V17.314H18.621V15.309C18.621 12.985 20.042 11.718 22.116 11.718C22.815 11.716 23.513 11.752 24.208 11.823V14.253H22.78C21.65 14.253 21.43 14.787 21.43 15.575V17.31H24.13L23.779 20.035H21.414V27H23C25.209 27 27 25.209 27 23V13C27 10.791 25.209 9 23 9Z" fill="#1144C5"/>
</svg>
