<svg width="523" height="276" viewBox="0 0 523 276" fill="none" xmlns="http://www.w3.org/2000/svg">
<g clip-path="url(#clip0_2051_27619)">
<path d="M280.853 200.232C279.073 201.056 277.693 202.412 276.52 203.876C274.937 205.819 274.56 208.422 275.79 210.566C282.02 221.426 293.943 220.946 297.57 217.776C302.207 213.716 308.173 200.316 297.343 193.242C291.053 194.876 285.85 197.919 280.853 200.232Z" fill="#1043C1"/>
<path d="M176.873 47.7839C175.556 47.2879 174.478 46.3082 173.859 45.0446C173.24 43.781 173.125 42.3287 173.54 40.9839C174.85 36.7506 177.873 31.5839 184.807 31.3673C196.637 30.9973 211.187 4.29725 218.263 20.2406C224.79 34.9473 227.68 32.8039 236.54 42.2406C245.4 51.6772 244.363 58.2406 244.363 58.2406C243.646 57.9152 242.865 57.7513 242.077 57.7605C241.29 57.7698 240.513 57.9518 239.803 58.2939C234.937 60.4706 220.18 68.5039 218.923 89.9872L219.923 93.3506C219.923 93.3506 208.46 91.1706 201.63 76.6106C197.227 67.2872 191.167 53.1739 176.873 47.7839Z" fill="#1043C1"/>
<path d="M247.033 61.6099V59.0166C247.033 59.0166 242.41 56.9666 241.28 59.0166C241.28 59.0166 245.903 61.7599 247.033 61.6099Z" fill="#1D2A62"/>
<path d="M229.973 87.6659L231.78 84.2126C231.78 84.2126 224.447 74.7626 220.94 78.4392C220.94 78.4392 215.273 94.1692 223.12 92.5026C223.12 92.5092 228.667 90.1526 229.973 87.6659Z" fill="#1D2A62"/>
<path d="M261.28 101.469C257.463 99.0486 254.053 102.759 252.533 106.045C251.5 108.282 250.83 110.615 249.137 112.475C247.547 114.222 245.623 115.619 244.1 117.435C238.35 124.299 237.34 133.885 238.307 142.479C238.91 147.852 240.173 153.115 241.287 158.399C242.476 163.864 243.201 169.421 243.453 175.009C243.563 177.772 243.58 180.539 243.587 183.305C243.593 186.072 243.657 188.869 243.207 191.602C242.333 196.819 239.243 201.335 237.063 206.052C232.857 215.179 229.923 225.322 231.437 235.439C231.625 236.688 231.881 237.927 232.203 239.149C232.243 239.27 232.329 239.372 232.442 239.433C232.555 239.493 232.686 239.508 232.81 239.474C232.934 239.441 233.04 239.361 233.106 239.251C233.172 239.141 233.194 239.01 233.167 238.885C230.593 229.045 232.77 218.839 236.58 209.629C237.547 207.295 238.627 205.012 239.777 202.765C240.927 200.519 242.173 198.272 243.077 195.889C244.933 190.989 244.617 185.642 244.573 180.495C244.527 175.115 244.3 169.742 243.443 164.425C242.6 159.172 241.283 154.012 240.29 148.792C238.623 139.935 237.923 130.162 242.29 121.915C243.289 120.01 244.57 118.267 246.09 116.745C247.72 115.125 249.607 113.745 250.92 111.835C252.28 109.862 252.79 107.469 253.983 105.409C254.847 103.922 256.133 102.265 257.857 101.772C258.9 101.472 259.883 101.772 260.777 102.332C261.32 102.665 261.823 101.812 261.28 101.469Z" fill="black"/>
<path d="M347.307 197.355C346.64 194.115 345.25 191.021 343.773 188.071C342.078 184.686 340.121 181.438 337.92 178.358C336.99 177.043 335.988 175.78 334.92 174.575C333.487 173.028 331.943 171.587 330.3 170.265C328.49 168.758 326.633 167.318 324.847 165.775C323.157 164.308 321.537 162.758 319.983 161.145C313.76 154.671 308.683 147.208 304.037 139.551C301.683 135.671 299.46 131.721 297.183 127.801C294.87 123.801 292.397 119.861 289.183 116.531C286.249 113.509 282.752 111.089 278.89 109.408C276.927 108.546 274.885 107.876 272.793 107.408C271.793 107.181 270.747 107.008 269.71 106.875C268.673 106.741 267.603 106.771 266.633 106.371C265.904 106.031 265.239 105.568 264.667 105.001C264.19 104.571 263.48 105.275 263.96 105.708C264.549 106.278 265.215 106.762 265.94 107.145C266.89 107.598 267.853 107.675 268.883 107.778C271.004 107.993 273.097 108.423 275.13 109.061C279.165 110.313 282.912 112.352 286.153 115.061C289.633 117.995 292.313 121.691 294.68 125.548C297.047 129.405 299.223 133.408 301.533 137.311C306.077 144.978 310.95 152.531 316.867 159.231C319.843 162.586 323.091 165.69 326.577 168.511C329.74 171.085 332.94 173.605 335.5 176.805C337.752 179.676 339.759 182.731 341.5 185.938C343.2 189.005 344.773 192.205 345.8 195.568C346.007 196.235 346.183 196.921 346.323 197.608C346.45 198.238 347.413 197.971 347.287 197.345L347.307 197.355Z" fill="black"/>
<path d="M287.767 195.728C277.737 199.118 268.04 203.608 259.21 209.478C252.872 213.632 247.075 218.559 241.953 224.145C238.824 227.525 236.081 231.242 233.773 235.228C233.241 236.14 232.773 237.088 232.373 238.065C232.131 238.766 232.118 239.526 232.337 240.235C233.04 242.841 235.7 244.568 237.86 245.901C242.647 248.858 248.143 250.491 253.71 251.135C259.62 251.801 265.54 251.241 271.377 250.325C277.72 249.33 283.972 247.819 290.07 245.808C294.847 244.231 299.537 242.358 304.157 240.375C313.69 236.278 323.087 231.478 331.38 225.191C335.183 222.308 338.783 219.088 341.747 215.328C344.88 211.328 347.387 206.538 347.66 201.388C347.835 198.888 347.254 196.394 345.993 194.228C344.789 192.296 343.053 190.752 340.993 189.781C336.66 187.688 331.59 187.521 326.887 187.815C322.553 188.085 318.22 188.598 313.927 189.205C308.682 189.905 303.483 190.92 298.36 192.245C296.03 192.854 293.736 193.595 291.49 194.465C290.897 194.695 291.157 195.665 291.757 195.428C296.423 193.595 301.32 192.428 306.223 191.488C311.067 190.558 315.96 189.868 320.863 189.348C325.09 188.901 329.37 188.465 333.62 188.881C338.163 189.328 343.073 190.905 345.397 195.161C347.88 199.718 346.463 205.378 344.227 209.728C342.08 213.905 338.86 217.468 335.4 220.598C327.93 227.351 318.96 232.398 309.91 236.691C300.383 241.211 290.447 245.128 280.173 247.575C274.19 248.998 268.027 250.085 261.877 250.385C256.313 250.658 250.673 250.075 245.377 248.301C242.775 247.439 240.289 246.261 237.973 244.795C236.784 244.085 235.685 243.233 234.7 242.258C233.847 241.358 232.993 240.081 233.203 238.771C233.25 238.559 233.321 238.352 233.413 238.155C233.36 238.285 233.437 238.098 233.473 238.015C233.51 237.931 233.56 237.821 233.607 237.725C233.71 237.501 233.82 237.275 233.94 237.058C235.715 233.681 237.852 230.507 240.313 227.591C244.633 222.394 249.556 217.73 254.98 213.698C262.683 207.911 271.227 203.268 280.14 199.635C282.744 198.575 285.379 197.596 288.043 196.698C288.65 196.495 288.377 195.528 287.777 195.735L287.767 195.728Z" fill="black"/>
<path d="M275.37 200.623C273.61 202.259 272.2 204.346 271.85 206.766C271.602 208.803 271.956 210.869 272.87 212.706C273.748 214.511 274.927 216.154 276.357 217.563C277.503 218.764 278.817 219.795 280.257 220.623C282.307 221.749 284.743 222.196 287.057 222.269C289.757 222.356 292.477 221.853 294.827 220.479C297.247 219.063 299.287 216.959 300.89 214.679C302.497 212.448 303.59 209.889 304.093 207.186C304.947 202.226 303.247 196.823 299.123 193.763C298.637 193.402 298.121 193.084 297.58 192.813C297.007 192.523 296.5 193.383 297.073 193.676C301.287 195.809 303.54 200.629 303.313 205.236C303.057 210.419 299.98 215.336 295.957 218.499C293.925 220.111 291.451 221.065 288.863 221.236C286.447 221.437 284.017 221.095 281.75 220.236C280.392 219.644 279.145 218.823 278.063 217.809C276.685 216.61 275.491 215.214 274.52 213.666C273.493 212.093 272.886 210.284 272.757 208.409C272.708 206.335 273.419 204.313 274.757 202.726C275.161 202.234 275.6 201.77 276.07 201.339C276.543 200.899 275.837 200.193 275.363 200.633L275.37 200.623Z" fill="black"/>
<path d="M305.83 205.355C306.32 206.788 305.83 208.295 305.38 209.688C305.18 210.301 306.147 210.565 306.347 209.955C306.85 208.408 307.347 206.708 306.793 205.105C306.753 204.981 306.666 204.877 306.551 204.815C306.437 204.753 306.303 204.738 306.177 204.771C306.052 204.81 305.948 204.896 305.885 205.01C305.823 205.125 305.808 205.259 305.843 205.385L305.83 205.355Z" fill="black"/>
<path d="M269.437 212.727C269.904 214.276 270.563 215.76 271.4 217.144C271.733 217.69 272.6 217.19 272.263 216.637C271.47 215.329 270.844 213.925 270.4 212.46C270.217 211.844 269.25 212.107 269.437 212.727Z" fill="black"/>
<path d="M279.64 116.806C283.953 119.498 287.546 123.2 290.107 127.593C290.837 128.848 291.479 130.154 292.027 131.499C292.263 132.089 293.233 131.833 292.99 131.236C290.442 124.903 285.942 119.546 280.143 115.943C279.597 115.609 279.093 116.466 279.64 116.806Z" fill="black"/>
<path d="M294.98 137.103C297.573 143.521 300.819 149.656 304.667 155.41C308.509 161.15 312.924 166.485 317.843 171.333C320.62 174.056 323.551 176.616 326.623 179C327.123 179.39 327.837 178.687 327.33 178.29C313.41 167.465 302.585 153.166 295.943 136.83C295.703 136.24 294.737 136.497 294.98 137.094V137.103Z" fill="black"/>
<path d="M242.7 243.291C244.448 244.713 246.582 245.579 248.827 245.778C248.959 245.777 249.086 245.724 249.179 245.631C249.273 245.537 249.326 245.41 249.327 245.278C249.323 245.147 249.27 245.021 249.176 244.928C249.083 244.835 248.958 244.781 248.827 244.778C246.844 244.597 244.959 243.833 243.41 242.581C243.314 242.491 243.187 242.441 243.055 242.441C242.923 242.441 242.796 242.491 242.7 242.581C242.608 242.677 242.556 242.804 242.556 242.936C242.556 243.069 242.608 243.196 242.7 243.291Z" fill="black"/>
<path d="M252.703 246.548C259.807 247.168 266.993 247.111 274.037 245.901C278.752 245.079 283.359 243.726 287.77 241.868C289.6 241.101 291.397 240.265 293.207 239.448C293.793 239.185 293.283 238.321 292.703 238.585C289.253 240.138 285.827 241.705 282.223 242.868C276.868 244.561 271.317 245.555 265.707 245.825C261.372 246.036 257.028 245.943 252.707 245.548C252.067 245.491 252.07 246.491 252.707 246.548H252.703Z" fill="black"/>
<path d="M248.827 125.685C248.827 125.685 245.547 147.222 250.91 150.735C256.273 154.248 256.587 116.062 248.827 125.685Z" fill="white"/>
<path d="M250.91 162.331C250.91 162.331 248.61 173.998 255.083 174.998C261.557 175.998 254.55 155.178 250.91 162.331Z" fill="white"/>
<path d="M280.313 204.279C279.803 204.259 279.302 204.424 278.904 204.745C278.505 205.065 278.236 205.519 278.147 206.022C277.753 207.986 277.39 212.219 281.297 213.106C285.69 214.099 283.89 204.536 280.313 204.279Z" fill="#F4F2F1"/>
<path d="M176.267 53.0954C181.215 55.5355 185.673 58.8628 189.42 62.9121C191.293 64.9398 192.967 67.1421 194.42 69.4888C195.76 71.7258 196.966 74.0398 198.033 76.4188C200.16 80.9688 202.24 85.7521 205.86 89.3488C207.549 91.0594 209.599 92.3713 211.86 93.1888C214.001 93.9227 216.271 94.2042 218.527 94.0154C223.027 93.6588 227.49 91.5888 230.333 88.0154C230.693 87.5712 231.026 87.1072 231.333 86.6254C231.667 86.0788 230.813 85.5788 230.47 86.1221C228.09 89.8921 223.95 92.2354 219.593 92.8854C217.393 93.2236 215.146 93.0929 213 92.5021C210.793 91.8585 208.769 90.7053 207.09 89.1354C203.423 85.7654 201.317 81.0854 199.247 76.6488C198.17 74.3454 197.097 72.0321 195.803 69.8354C194.422 67.4972 192.831 65.2893 191.05 63.2388C187.504 59.1626 183.264 55.7465 178.527 53.1488C177.953 52.8266 177.368 52.521 176.77 52.2321C176.197 51.9488 175.69 52.8121 176.267 53.0954Z" fill="black"/>
<path d="M169.933 50.5921C170.76 50.8454 171.583 51.1254 172.393 51.4287C172.521 51.4627 172.658 51.445 172.773 51.3796C172.888 51.3142 172.973 51.2061 173.01 51.0787C173.042 50.9529 173.026 50.8195 172.964 50.7052C172.902 50.5909 172.8 50.5041 172.677 50.4621C171.863 50.1621 171.043 49.8821 170.213 49.6287C170.088 49.6014 169.957 49.6231 169.848 49.6894C169.738 49.7558 169.658 49.8617 169.624 49.9853C169.59 50.109 169.605 50.2408 169.666 50.3538C169.727 50.4667 169.828 50.552 169.95 50.5921H169.933Z" fill="black"/>
<path d="M222.64 21.9514C223.327 24.9714 225.137 27.6181 227.143 29.9281C229.23 32.3214 231.607 34.4681 233.9 36.6614C238.423 40.9947 242.98 45.5781 245.387 51.4747C246.683 54.6481 247.333 58.1247 246.797 61.5381C246.697 62.1681 247.66 62.4381 247.76 61.8047C248.737 55.5847 246.2 49.4414 242.533 44.5214C238.667 39.3347 233.597 35.2381 229.12 30.6014C226.703 28.0947 224.393 25.1514 223.603 21.6881C223.46 21.0581 222.497 21.3247 222.64 21.9514Z" fill="black"/>
<path d="M222.77 17.1571C222.598 17.7555 222.486 18.3697 222.437 18.9904C222.437 19.124 222.489 19.2522 222.583 19.3471C222.678 19.4393 222.805 19.4908 222.937 19.4904C223.068 19.487 223.193 19.4333 223.286 19.3402C223.38 19.2472 223.433 19.1219 223.437 18.9904C223.437 18.8637 223.463 18.7337 223.48 18.6071V18.7404C223.54 18.2946 223.636 17.8543 223.767 17.4237C223.802 17.2982 223.787 17.1638 223.725 17.0493C223.662 16.9347 223.558 16.849 223.433 16.8104C223.307 16.7766 223.173 16.7923 223.059 16.8543C222.944 16.9163 222.857 17.0199 222.817 17.1437L222.77 17.1571Z" fill="black"/>
<path d="M247.597 58.7948C246.044 57.7385 244.185 57.2252 242.31 57.3348C240.49 57.4535 238.724 57.9981 237.153 58.9248C235.408 59.959 233.77 61.1638 232.263 62.5215C230.858 63.731 229.522 65.0197 228.263 66.3815C223.223 71.8248 219.373 78.5715 218.387 86.0048C218.053 88.5648 218.073 92.9482 221.387 93.4882C222.017 93.5915 222.29 92.6282 221.653 92.5248C219.157 92.1182 219.077 88.7482 219.28 86.7882C219.67 83.3198 220.661 79.946 222.21 76.8182C223.766 73.657 225.736 70.7168 228.067 68.0748C230.423 65.3357 233.104 62.8933 236.05 60.8015C237.717 59.6482 239.553 58.6548 241.577 58.3948C243.51 58.1133 245.479 58.5678 247.093 59.6682C247.62 60.0382 248.12 59.1715 247.597 58.8015V58.7948Z" fill="black"/>
<path d="M221.583 77.6658C226.953 78.6658 231 82.8225 233.08 87.7058C234.223 90.3991 234.747 93.2525 235.133 96.1358C235.52 99.0191 235.937 101.859 237.163 104.496C238.25 106.829 240.02 108.829 242.427 109.862C244.742 110.884 247.365 110.961 249.737 110.079C251.93 109.212 253.87 107.276 253.63 104.746C253.591 104.159 253.416 103.59 253.119 103.083C252.823 102.575 252.412 102.144 251.92 101.822C250.89 101.156 249.64 100.952 248.587 100.292C246.853 99.1825 245.81 97.2525 245.443 95.2658C245.056 93.1606 245.497 90.9872 246.673 89.1991C249.307 85.1991 254.85 83.5125 259.39 84.6825C261.807 85.3025 264.013 86.8491 264.823 89.2891C265.212 90.3862 265.248 91.5772 264.927 92.6958C264.557 93.9025 263.657 94.8091 262.783 95.6758C261.91 96.5425 261.03 97.3891 260.55 98.5191C260.103 99.4769 260.021 100.565 260.32 101.579C261.213 104.116 264.773 103.716 266.82 103.092C269.337 102.284 271.46 100.562 272.77 98.2658C274.083 95.9526 274.998 93.4354 275.477 90.8191C275.97 88.3191 275.897 85.6358 274.143 83.6191C272.677 81.9258 270.477 81.1425 268.477 80.2491C267.465 79.8222 266.499 79.2916 265.597 78.6658V79.5291C267.143 78.6391 269.08 79.2758 270.57 79.9891C272.051 80.7109 273.408 81.6639 274.59 82.8125C275.824 84.0076 276.926 85.3306 277.88 86.7591C278.337 87.4258 278.733 88.1525 279.197 88.8191C279.66 89.4858 280.197 90.0258 280.987 90.1725C282.717 90.5058 284.05 88.8391 284.553 87.3925C285.062 85.7637 284.981 84.0081 284.327 82.4325C283.66 80.7058 282.537 79.2225 281.36 77.8091C280.263 76.4346 279.02 75.1829 277.653 74.0758C276.047 72.8289 274.17 71.9781 272.173 71.5925C270.063 71.1725 267.903 71.1458 265.76 71.1325L266.19 71.8825C266.407 71.4625 266.91 71.4258 267.34 71.4325C267.994 71.4707 268.644 71.561 269.283 71.7025C270.717 71.9658 272.129 72.3323 273.51 72.7991C274.863 73.2525 276.177 73.8791 277.633 73.9625C278.77 74.0258 280.04 73.6858 280.817 72.8025C281.189 72.3519 281.44 71.8142 281.547 71.24C281.654 70.6657 281.614 70.0736 281.43 69.5191C281.033 68.3818 280.262 67.4125 279.243 66.7691C277.133 65.3091 274.47 64.7691 271.94 64.7191C268.907 64.6691 265.903 65.2891 262.957 65.9391C262.327 66.0758 262.597 67.0258 263.223 66.9025L267.667 66.0525C268.713 65.8458 269.947 65.4058 269.83 64.1025C269.73 62.9691 268.707 62.1325 267.74 61.7025C266.593 61.2118 265.361 60.9492 264.113 60.9291C261.447 60.8491 258.833 61.5758 256.203 61.9091C253.703 62.2434 251.162 62.1248 248.703 61.5591C245.948 60.9079 243.371 59.6558 241.157 57.8925C240.66 57.4925 239.947 58.1958 240.45 58.5991C244.165 61.5616 248.789 63.1511 253.54 63.0991C256.027 63.0791 258.443 62.5258 260.893 62.1658C262.095 61.9678 263.314 61.8974 264.53 61.9558C265.67 62.0291 266.963 62.2891 267.923 62.9358C268.327 63.2091 268.807 63.6925 268.84 64.2091C268.873 64.8091 268.153 64.9425 267.703 65.0358C266.133 65.3691 264.56 65.6491 262.987 65.9558L263.253 66.9191C267.957 65.8825 273.38 64.7358 277.877 67.1125C278.877 67.6325 279.803 68.3258 280.317 69.3391C280.797 70.2925 280.767 71.5825 279.927 72.3391C279.087 73.0958 277.803 73.0958 276.757 72.8525C275.423 72.5391 274.153 71.9525 272.84 71.5558C271.369 71.1111 269.867 70.7769 268.347 70.5558C267.313 70.4091 265.923 70.2991 265.347 71.3991C265.304 71.4756 265.282 71.5617 265.283 71.6493C265.283 71.7368 265.306 71.8227 265.35 71.8985C265.394 71.9744 265.456 72.0376 265.532 72.0822C265.607 72.1267 265.693 72.1509 265.78 72.1525C269.293 72.1725 272.983 72.2325 276.05 74.1691C277.476 75.1212 278.759 76.2716 279.86 77.5858C281.041 78.8486 282.072 80.2447 282.93 81.7458C283.697 83.1925 284.14 84.8858 283.787 86.5158C283.643 87.2848 283.283 87.997 282.75 88.5691C282.243 89.0791 281.46 89.4658 280.78 89.0491C280.1 88.6325 279.78 87.8791 279.41 87.2658C278.99 86.5991 278.547 85.9325 278.077 85.3025C277.138 84.0049 276.069 82.8065 274.887 81.7258C273.576 80.5267 272.074 79.5554 270.443 78.8525C268.777 78.1491 266.777 77.7291 265.11 78.6858C265.036 78.7311 264.975 78.7946 264.933 78.8702C264.891 78.9457 264.869 79.0309 264.869 79.1175C264.869 79.2041 264.891 79.2892 264.933 79.3648C264.975 79.4403 265.036 79.5038 265.11 79.5491C266.92 80.8591 269.09 81.4991 271.047 82.5491C271.988 83.0129 272.829 83.6561 273.523 84.4425C274.277 85.3943 274.707 86.5623 274.75 87.7758C274.789 89.1091 274.621 90.4403 274.253 91.7225C273.936 92.9764 273.54 94.2089 273.067 95.4125C272.123 97.7925 270.687 100.039 268.42 101.339C267.281 101.996 266.013 102.396 264.703 102.512C263.65 102.602 262.093 102.682 261.45 101.652C260.94 100.839 261.117 99.7158 261.49 98.8825C261.973 97.7791 262.94 96.9625 263.777 96.1225C264.613 95.2825 265.443 94.3225 265.84 93.1525C266.201 92.0532 266.253 90.8759 265.99 89.7491C265.708 88.5725 265.158 87.4771 264.382 86.5489C263.605 85.6207 262.625 84.8848 261.517 84.3991C257.163 82.3991 251.64 83.3125 247.973 86.3191C246.261 87.6447 245.056 89.5185 244.56 91.6266C244.064 93.7348 244.308 95.9492 245.25 97.8991C245.686 98.8569 246.316 99.7141 247.1 100.417C247.883 101.119 248.804 101.653 249.803 101.982C250.93 102.409 252.08 102.862 252.47 104.109C252.63 104.638 252.666 105.196 252.576 105.741C252.487 106.286 252.274 106.803 251.953 107.252C250.56 109.252 247.743 109.889 245.443 109.659C244.204 109.532 243.005 109.143 241.926 108.519C240.847 107.895 239.912 107.05 239.183 106.039C237.61 103.859 236.917 101.209 236.477 98.5925C235.983 95.6525 235.743 92.6725 234.87 89.8058C233.347 84.8058 230.177 80.1391 225.343 77.8625C224.227 77.3301 223.046 76.9458 221.83 76.7191C221.2 76.6025 220.93 77.5658 221.563 77.6825L221.583 77.6658Z" fill="black"/>
<path d="M195.4 84.0884C192.717 90.5584 188.4 96.445 183.267 101.182C177.933 106.105 171.873 110.152 166.053 114.465C160.132 118.792 154.644 123.682 149.667 129.068C147.297 131.668 145.02 134.425 143.43 137.585C141.882 140.778 140.952 144.236 140.69 147.775C139.5 161.402 146.057 174.478 155.11 184.262C159.393 188.895 164.343 192.812 169.49 196.438C172.233 198.372 174.99 200.322 177.89 202.012C180.719 203.653 183.663 205.087 186.7 206.302C197.72 210.755 209.7 212.598 221.52 213.065C222.713 213.112 223.903 213.145 225.097 213.162C225.74 213.162 225.74 212.162 225.097 212.162C213.733 211.982 202.267 210.598 191.45 206.988C185.284 204.929 179.431 202.029 174.057 198.372C168.807 194.815 163.61 191.138 158.993 186.768C149.4 177.685 141.903 165.362 141.567 151.848C141.44 148.313 141.906 144.782 142.947 141.402C144.05 137.968 145.983 134.938 148.28 132.178C152.927 126.575 158.383 121.582 164.147 117.152C169.78 112.818 175.733 108.912 181.183 104.345C186.38 99.9883 190.867 94.885 194.163 88.935C194.985 87.4513 195.722 85.9222 196.37 84.355C196.617 83.7617 195.65 83.5017 195.407 84.0884H195.4Z" fill="black"/>
<path d="M342.703 178.765C348.753 174.195 354.657 169.362 359.827 163.799C364.787 158.465 369.133 152.355 371.493 145.399C373.803 138.575 373.947 131.109 372.193 124.139C370.425 117.032 366.668 110.577 361.363 105.529C355.717 100.195 348.787 96.5685 342.343 92.3419C338.974 90.1783 335.814 87.7054 332.903 84.9552C330.015 82.1064 327.284 79.1019 324.723 75.9552C319.97 70.2552 315.3 64.5385 309.583 59.7652C298.373 50.5373 285.303 43.8381 271.267 40.1252C264.267 38.3385 256.983 37.4052 249.76 37.8952C248.067 38.0119 246.377 38.2119 244.7 38.4852C244.063 38.5919 244.333 39.5552 244.963 39.4519C259.22 37.1185 274.087 40.8652 287.02 46.8152C293.444 49.756 299.542 53.3624 305.213 57.5752C307.837 59.5246 310.339 61.6319 312.707 63.8852C315.301 66.4254 317.757 69.1038 320.063 71.9085C325.213 78.0319 330.14 84.4419 336.487 89.4052C342.447 94.0719 349.23 97.5052 355.363 101.919C358.412 104.052 361.186 106.554 363.62 109.369C365.95 112.153 367.859 115.264 369.287 118.602C372.16 125.258 373.065 132.597 371.897 139.752C369.39 154.485 357.67 165.679 346.5 174.582C345.087 175.709 343.658 176.82 342.213 177.915C341.707 178.299 342.213 179.165 342.72 178.779L342.703 178.765Z" fill="black"/>
<path d="M166.35 132.502C162.147 137.059 160.137 143.135 159.98 149.272C159.859 155.572 161.433 161.788 164.537 167.272C167.708 172.911 172.231 177.672 177.7 181.129C183.033 184.462 189.303 186.462 195.63 186.269C201.77 186.083 207.71 184.041 212.667 180.412C215.107 178.624 217.227 176.435 218.937 173.939C220.893 170.966 222.252 167.641 222.937 164.149C224.287 157.572 223.926 150.759 221.887 144.362C219.953 138.302 216.477 132.665 211.553 128.578C206.967 124.765 201.22 122.442 195.333 121.578C189.567 120.745 183.37 121.245 178.197 124.115C177.007 124.774 175.889 125.556 174.863 126.449C174.377 126.875 175.087 127.578 175.57 127.158C179.82 123.452 185.603 122.105 191.13 122.225C196.935 122.343 202.608 123.976 207.587 126.962C212.803 130.135 216.79 135.025 219.33 140.542C221.91 146.211 223.056 152.428 222.667 158.645C222.488 162.334 221.68 165.966 220.277 169.382C219.077 172.176 217.363 174.721 215.223 176.882C211.08 181.082 205.557 183.808 199.763 184.828C193.761 185.83 187.596 184.97 182.097 182.365C176.448 179.701 171.56 175.658 167.883 170.609C164.227 165.674 161.918 159.873 161.183 153.775C160.517 147.905 161.387 141.745 164.48 136.635C165.224 135.41 166.088 134.262 167.06 133.209C167.493 132.735 166.79 132.029 166.35 132.502Z" fill="black"/>
<path d="M181.22 136.312C181.22 136.312 162.833 155.248 178.977 168.742C195.12 182.235 218.213 168.538 213.28 152.408C208.347 136.278 193.55 126.258 181.22 136.312Z" fill="#1043C1"/>
<path d="M342.853 117.934C338.877 117.891 335.233 120.601 333.237 124.037C331.24 127.474 330.5 131.551 330.5 135.531C330.5 144.121 340.9 148.331 342.59 148.727C347.523 149.887 352.95 147.441 355.79 143.247C358.63 139.054 358.97 133.421 357.16 128.691C355.35 123.961 352.917 120.147 346.827 118.161" fill="white"/>
<path d="M342.853 117.434C339.46 117.434 336.323 119.257 334.187 121.82C331.773 124.717 330.61 128.487 330.187 132.177C329.94 133.876 329.927 135.601 330.147 137.304C330.361 138.586 330.8 139.82 331.443 140.95C332.647 143.09 334.463 144.827 336.443 146.224C337.984 147.305 339.65 148.194 341.407 148.87C343.646 149.663 346.078 149.734 348.36 149.074C351.554 148.206 354.335 146.229 356.203 143.497C358.203 140.557 358.993 136.884 358.703 133.367C358.388 130.196 357.354 127.138 355.68 124.427C354.184 121.918 351.981 119.906 349.347 118.644C348.562 118.269 347.754 117.948 346.927 117.68C346.317 117.477 346.053 118.444 346.663 118.644C349.443 119.56 351.96 121.094 353.777 123.424C354.554 124.447 355.218 125.553 355.757 126.72C356.404 128.045 356.914 129.432 357.28 130.86C358.11 134.162 357.851 137.644 356.54 140.787C355.279 143.685 353.003 146.024 350.14 147.364C347.807 148.464 344.87 148.937 342.35 148.15C340.962 147.687 339.632 147.065 338.387 146.297C334.43 143.964 330.95 140.247 330.97 135.384C330.97 131.717 331.637 127.927 333.427 124.667C334.93 121.917 337.427 119.57 340.5 118.737C341.26 118.531 342.045 118.429 342.833 118.434C342.966 118.434 343.093 118.381 343.187 118.287C343.281 118.193 343.333 118.066 343.333 117.934C343.333 117.801 343.281 117.674 343.187 117.58C343.093 117.486 342.966 117.434 342.833 117.434H342.853Z" fill="black"/>
<path d="M240.187 174.196C239.67 177.812 241.04 181.389 240.537 184.996C240.506 185.122 240.523 185.254 240.585 185.368C240.646 185.482 240.748 185.569 240.87 185.612C240.998 185.646 241.134 185.629 241.25 185.563C241.365 185.498 241.45 185.39 241.487 185.262C241.99 181.646 240.62 178.066 241.133 174.459C241.165 174.334 241.148 174.201 241.086 174.088C241.024 173.974 240.922 173.888 240.8 173.846C240.672 173.811 240.535 173.828 240.42 173.894C240.304 173.959 240.219 174.068 240.183 174.196H240.187Z" fill="black"/>
<path d="M236.717 176.96C236.481 178.167 236.391 179.398 236.447 180.627C236.449 180.759 236.503 180.884 236.596 180.978C236.689 181.071 236.815 181.124 236.947 181.127C237.079 181.126 237.206 181.073 237.299 180.979C237.393 180.886 237.446 180.759 237.447 180.627C237.387 179.485 237.466 178.34 237.68 177.217C237.713 177.091 237.697 176.957 237.635 176.843C237.573 176.728 237.47 176.642 237.347 176.6C237.221 176.566 237.086 176.581 236.971 176.643C236.856 176.705 236.77 176.809 236.73 176.934L236.717 176.96Z" fill="black"/>
<path d="M328.667 166.167C330.523 167.514 332.182 169.112 333.597 170.917C333.691 171.009 333.818 171.061 333.95 171.061C334.082 171.061 334.209 171.009 334.303 170.917C334.394 170.822 334.444 170.695 334.444 170.564C334.444 170.432 334.394 170.306 334.303 170.211C332.83 168.344 331.103 166.693 329.173 165.304C329.061 165.242 328.929 165.226 328.805 165.259C328.681 165.292 328.574 165.371 328.507 165.481C328.442 165.596 328.424 165.731 328.457 165.859C328.49 165.987 328.571 166.097 328.683 166.167H328.667Z" fill="black"/>
<path d="M325.367 160.248C330.057 163.295 334.857 166.701 337.5 171.788C337.797 172.358 338.66 171.852 338.363 171.282C336.257 167.228 332.767 164.165 329.093 161.558C328.037 160.808 326.957 160.092 325.87 159.385C325.33 159.052 324.827 159.898 325.367 160.248Z" fill="black"/>
<path d="M341.13 126.153C341.403 126.133 341.48 126.669 341.523 126.883C341.63 127.429 341.727 127.979 341.857 128.523C342.097 129.609 342.383 130.684 342.717 131.746C343.384 133.864 344.227 135.922 345.237 137.899C345.53 138.473 346.393 137.966 346.1 137.393C344.998 135.222 344.105 132.95 343.433 130.609C343.098 129.443 342.818 128.262 342.593 127.066C342.447 126.289 342.197 125.066 341.153 125.153C340.513 125.199 340.51 126.203 341.153 126.153H341.13Z" fill="black"/>
<path d="M346.737 142.016C346.869 142.016 346.996 141.963 347.09 141.869C347.184 141.775 347.237 141.648 347.237 141.516C347.237 141.383 347.184 141.256 347.09 141.162C346.996 141.068 346.869 141.016 346.737 141.016C346.604 141.016 346.477 141.068 346.383 141.162C346.289 141.256 346.237 141.383 346.237 141.516C346.237 141.648 346.289 141.775 346.383 141.869C346.477 141.963 346.604 142.016 346.737 142.016Z" fill="black"/>
<path d="M186.733 155.435C187.698 156.16 188.699 156.836 189.733 157.458C190.25 157.765 190.773 158.062 191.297 158.358C191.82 158.655 192.59 159.328 193.1 158.718C193.318 158.389 193.492 158.032 193.62 157.658C193.817 157.218 194.01 156.778 194.203 156.325C194.559 155.518 194.909 154.71 195.253 153.898C195.936 152.285 196.597 150.662 197.237 149.028C197.968 147.162 198.667 145.284 199.333 143.395C199.55 142.788 198.583 142.528 198.37 143.132C197.272 146.227 196.094 149.294 194.837 152.332C194.197 153.867 193.53 155.396 192.837 156.918L192.607 157.432C192.573 157.502 192.31 157.955 192.34 158.015L192.493 157.995C192.663 157.995 192.693 157.995 192.577 157.935C192.533 157.868 192.39 157.828 192.317 157.785L191.783 157.482L190.38 156.678C189.296 156.028 188.246 155.32 187.237 154.558C186.717 154.178 186.217 155.045 186.73 155.422L186.733 155.435Z" fill="#F4F2F1"/>
<path d="M291.167 67.3618C294.596 74.5773 297.639 81.9699 300.283 89.5085C301.028 91.6329 301.741 93.7696 302.423 95.9185C302.453 96.023 302.516 96.1151 302.603 96.1811C302.689 96.2472 302.795 96.2836 302.903 96.2851C307.201 95.7297 311.423 94.6943 315.49 93.1985C317.523 92.4585 319.523 91.6285 321.49 90.7385C323.343 89.9051 325.157 88.9785 327.05 88.2551C329.09 87.4785 331.237 86.7885 333.42 86.5884C334.053 86.5285 334.06 85.5285 333.42 85.5884C329.48 85.9585 325.833 87.6351 322.293 89.2818C318.379 91.1529 314.311 92.683 310.133 93.8551C307.757 94.5017 305.339 94.9818 302.897 95.2918L303.38 95.6585C300.942 87.988 298.101 80.4519 294.867 73.0818C293.951 70.9951 293.004 68.9218 292.027 66.8618C291.75 66.2818 290.887 66.7884 291.16 67.3684L291.167 67.3618Z" fill="black"/>
<path d="M291.907 67.3347C292.66 67.0181 293.457 66.7914 294.24 66.5481C295.643 66.1014 297.053 65.6714 298.463 65.2447C301.537 64.3114 304.613 63.4014 307.693 62.4847C308.65 62.2014 309.607 61.9214 310.56 61.6247C311.173 61.4347 310.91 60.4714 310.293 60.6614C308.093 61.3481 305.877 61.9947 303.67 62.6381C300.597 63.5547 297.52 64.4681 294.46 65.4281C293.523 65.7247 292.557 65.9881 291.647 66.3681C291.524 66.4101 291.421 66.4969 291.359 66.6112C291.298 66.7255 291.281 66.8589 291.313 66.9847C291.348 67.1124 291.433 67.2209 291.548 67.2865C291.663 67.3521 291.799 67.3695 291.927 67.3347H291.907Z" fill="black"/>
<path d="M295.573 69C295.706 69 295.833 68.9473 295.927 68.8536C296.021 68.7598 296.073 68.6326 296.073 68.5C296.073 68.3674 296.021 68.2402 295.927 68.1464C295.833 68.0527 295.706 68 295.573 68C295.441 68 295.314 68.0527 295.22 68.1464C295.126 68.2402 295.073 68.3674 295.073 68.5C295.073 68.6326 295.126 68.7598 295.22 68.8536C295.314 68.9473 295.441 69 295.573 69Z" fill="black"/>
<path d="M298.707 68.2461C298.839 68.2461 298.966 68.1934 299.06 68.0997C299.154 68.0059 299.207 67.8787 299.207 67.7461C299.207 67.6135 299.154 67.4863 299.06 67.3925C298.966 67.2988 298.839 67.2461 298.707 67.2461C298.574 67.2461 298.447 67.2988 298.353 67.3925C298.259 67.4863 298.207 67.6135 298.207 67.7461C298.207 67.8787 298.259 68.0059 298.353 68.0997C298.447 68.1934 298.574 68.2461 298.707 68.2461Z" fill="black"/>
<path d="M301.953 67.4883C302.086 67.4883 302.213 67.4356 302.307 67.3418C302.401 67.2481 302.453 67.1209 302.453 66.9883C302.453 66.8557 302.401 66.7285 302.307 66.6347C302.213 66.541 302.086 66.4883 301.953 66.4883C301.821 66.4883 301.694 66.541 301.6 66.6347C301.506 66.7285 301.453 66.8557 301.453 66.9883C301.453 67.1209 301.506 67.2481 301.6 67.3418C301.694 67.4356 301.821 67.4883 301.953 67.4883Z" fill="black"/>
<path d="M202.917 185.12L204.8 191.56C204.884 192.027 205.041 192.477 205.267 192.893C205.396 193.047 205.56 193.168 205.746 193.244C205.932 193.321 206.133 193.351 206.333 193.333C207.398 193.377 208.465 193.349 209.527 193.25C213.65 192.917 217.66 191.843 221.727 191.15C224.035 190.724 226.38 190.535 228.727 190.587C228.859 190.586 228.986 190.533 229.079 190.439C229.173 190.346 229.226 190.219 229.227 190.087L227.993 179.107C227.89 178.217 227.8 177.32 227.69 176.44C227.613 175.817 227.47 175.123 226.903 174.773C226.217 174.33 225.33 174.67 224.613 174.84L221.947 175.467L215.8 176.913C215.173 177.06 215.437 178.023 216.067 177.877L221 176.717L223.507 176.127C224.29 175.943 225.087 175.69 225.883 175.573C226.217 175.523 226.443 175.59 226.573 175.907C226.674 176.231 226.732 176.567 226.747 176.907L227.033 179.447L227.587 184.36L228.23 190.097L228.73 189.597C224.75 189.46 220.83 190.283 216.953 191.07C215.02 191.46 213.083 191.85 211.127 192.093C210.147 192.217 209.16 192.303 208.17 192.34C207.713 192.34 207.257 192.363 206.8 192.34C206.578 192.37 206.352 192.358 206.133 192.307C206.007 192.23 205.967 191.883 205.927 191.75L203.903 184.84C203.723 184.223 202.757 184.487 202.94 185.107L202.917 185.12Z" fill="black"/>
<path d="M198.277 185.334L199.427 194.528L199.713 196.824C199.787 197.401 199.827 198.014 200.423 198.288C201.02 198.561 201.723 198.451 202.313 198.474L204.48 198.551C210.177 198.728 215.98 198.664 221.513 197.141C222.255 196.977 222.98 196.743 223.677 196.441C224.377 196.084 224.397 195.401 224.293 194.711C224.073 193.241 223.96 191.754 223.733 190.284C223.637 189.648 222.673 189.918 222.77 190.548C222.95 191.724 223.047 192.908 223.203 194.084C223.24 194.384 223.287 194.681 223.327 194.978C223.367 195.274 223.417 195.468 223.123 195.598C222.537 195.825 221.935 196.012 221.323 196.158C218.798 196.837 216.212 197.268 213.603 197.444C211.007 197.638 208.4 197.648 205.797 197.588C204.48 197.558 203.167 197.508 201.85 197.458C201.566 197.461 201.282 197.448 201 197.418C200.703 197.368 200.747 197.084 200.713 196.824C200.631 196.14 200.546 195.457 200.457 194.774L199.277 185.334C199.197 184.704 198.197 184.698 198.277 185.334Z" fill="black"/>
<path d="M311.177 109.435L309.107 110.399C308.501 110.648 307.914 110.943 307.353 111.282C306.45 111.889 305.743 113.052 306.317 114.132C306.927 115.285 308.377 115.009 309.407 114.752C310.782 114.401 312.139 113.977 313.47 113.482C316.137 112.505 318.71 111.302 321.267 110.072C322.267 109.595 323.647 109.139 324.093 108.029C324.52 106.985 323.673 106.129 322.683 105.982C322.061 105.92 321.434 105.957 320.823 106.092C320.093 106.215 319.371 106.38 318.66 106.585C317.172 107.018 315.739 107.619 314.387 108.375C313.823 108.689 314.327 109.552 314.89 109.239C316.883 108.128 319.056 107.376 321.31 107.019C321.747 106.952 323.287 106.715 323.207 107.539C323.17 107.909 322.717 108.205 322.433 108.375C321.97 108.659 321.46 108.872 320.97 109.109C318.843 110.135 316.703 111.149 314.507 112.022C313.403 112.459 312.287 112.862 311.153 113.219C310.61 113.389 310.067 113.552 309.517 113.689C309.017 113.854 308.498 113.957 307.973 113.995C307.493 113.995 307.083 113.772 307.12 113.242C307.162 112.982 307.267 112.737 307.426 112.526C307.585 112.316 307.792 112.148 308.03 112.035C308.592 111.724 309.169 111.443 309.76 111.192L311.667 110.299C312.25 110.029 311.743 109.165 311.163 109.435H311.177Z" fill="black"/>
<path d="M310.487 118.935C311.382 118.693 312.248 118.358 313.073 117.935C313.962 117.539 314.851 117.163 315.74 116.805C316.643 116.445 317.553 116.078 318.48 115.782C319.13 115.575 319.813 115.552 320.067 116.288C320.59 117.768 318.913 118.708 317.843 119.288L315.267 120.668C314.43 121.112 313.6 121.668 312.66 121.912C312.254 122.046 311.816 122.052 311.407 121.928C310.997 121.803 310.636 121.556 310.373 121.218C310.124 120.867 309.998 120.443 310.013 120.012C310.029 119.581 310.186 119.168 310.46 118.835C310.867 118.342 310.163 117.632 309.75 118.128C309.446 118.479 309.229 118.896 309.117 119.347C309.004 119.797 308.999 120.267 309.101 120.72C309.204 121.172 309.411 121.594 309.707 121.952C310.002 122.31 310.378 122.593 310.803 122.778C311.83 123.218 312.907 122.955 313.883 122.512C314.947 122.028 315.967 121.428 317 120.878C318.553 120.055 320.897 119.168 321.137 117.152C321.197 116.768 321.16 116.376 321.03 116.011C320.9 115.645 320.681 115.318 320.393 115.058C319.567 114.392 318.543 114.725 317.647 115.038C316.402 115.483 315.173 115.965 313.96 116.485C312.737 117.002 311.523 117.702 310.22 117.985C309.59 118.122 309.857 119.085 310.487 118.948V118.935Z" fill="black"/>
<path d="M315 126.608L318.18 125.401C318.807 125.164 319.847 124.691 320.083 125.634C320.267 126.348 319.75 126.924 319.173 127.268C318.4 127.731 317.357 128.111 316.447 127.994C316.009 127.955 315.603 127.751 315.31 127.424C315.216 127.318 315.157 127.185 315.14 127.044C315.14 126.894 315.14 126.851 315.24 126.808C315.355 126.741 315.439 126.631 315.473 126.503C315.507 126.374 315.488 126.238 315.422 126.123C315.389 126.066 315.345 126.016 315.292 125.976C315.24 125.936 315.18 125.907 315.117 125.89C314.988 125.856 314.852 125.874 314.737 125.941C314.504 126.075 314.322 126.282 314.22 126.531C314.118 126.78 314.101 127.055 314.173 127.314C314.239 127.581 314.36 127.831 314.527 128.048C314.693 128.266 314.903 128.448 315.143 128.581C316.287 129.288 317.7 129.001 318.867 128.521C319.9 128.098 320.953 127.388 321.1 126.188C321.233 125.088 320.497 123.991 319.313 124.058C318.54 124.098 317.793 124.484 317.08 124.754L314.747 125.644C314.62 125.682 314.514 125.766 314.448 125.881C314.383 125.995 314.365 126.13 314.397 126.258C314.432 126.385 314.517 126.494 314.633 126.56C314.748 126.625 314.885 126.642 315.013 126.608H315Z" fill="black"/>
<path d="M222 44.2949C223.447 45.3116 224.867 46.3616 226.257 47.4582C226.352 47.548 226.479 47.5979 226.61 47.5979C226.741 47.5979 226.868 47.548 226.963 47.4582C227.056 47.3641 227.108 47.2371 227.108 47.1049C227.108 46.9727 227.056 46.8458 226.963 46.7516C225.508 45.6027 224.022 44.4916 222.507 43.4182C222.392 43.3525 222.256 43.3345 222.128 43.3682C222 43.4018 221.891 43.4845 221.823 43.5982C221.759 43.7129 221.741 43.8481 221.774 43.9754C221.807 44.1027 221.888 44.2124 222 44.2816V44.2949Z" fill="#F4F2F1"/>
<path d="M202.857 28.6674C202.443 30.3862 202.227 32.1464 202.213 33.9141C202.213 34.0467 202.266 34.1739 202.36 34.2677C202.454 34.3614 202.581 34.4141 202.713 34.4141C202.846 34.4141 202.973 34.3614 203.067 34.2677C203.161 34.1739 203.213 34.0467 203.213 33.9141C203.226 32.2363 203.431 30.5654 203.823 28.9341C203.973 28.3108 203.007 28.0441 202.857 28.6674Z" fill="#F4F2F1"/>
<path d="M202.46 48.1019C203.807 49.1237 205.26 49.9976 206.793 50.7086C206.909 50.7718 207.044 50.7884 207.171 50.7549C207.298 50.7214 207.407 50.6404 207.477 50.5286C207.537 50.4155 207.552 50.2835 207.519 50.1595C207.486 50.0356 207.406 49.9292 207.297 49.8619C205.762 49.1519 204.31 48.2779 202.963 47.2553C202.848 47.189 202.712 47.1705 202.584 47.2035C202.456 47.2365 202.345 47.3185 202.277 47.4319C202.212 47.5475 202.195 47.6835 202.229 47.8114C202.262 47.9393 202.344 48.0494 202.457 48.1186L202.46 48.1019Z" fill="#F4F2F1"/>
<path d="M213.633 60.3629C213.063 60.9229 212.933 61.8029 212.73 62.5396L212 65.1263C211.969 65.2526 211.988 65.386 212.054 65.4982C212.12 65.6103 212.227 65.6925 212.352 65.7272C212.478 65.7619 212.611 65.7464 212.726 65.684C212.84 65.6216 212.925 65.5172 212.963 65.3929L213.63 62.9796C213.74 62.5896 213.843 62.1996 213.963 61.8096C214.022 61.5348 214.15 61.2799 214.337 61.0696C214.797 60.6196 214.09 59.9129 213.627 60.3629H213.633Z" fill="#F4F2F1"/>
<path d="M186.073 43.2468C187.59 43.6033 189.152 43.7336 190.707 43.6335C190.839 43.6335 190.966 43.5808 191.06 43.487C191.154 43.3932 191.207 43.2661 191.207 43.1335C191.207 43.0008 191.154 42.8737 191.06 42.7799C190.966 42.6861 190.839 42.6335 190.707 42.6335C189.242 42.7329 187.77 42.6138 186.34 42.2801C185.713 42.1368 185.447 43.1001 186.073 43.2468Z" fill="#F4F2F1"/>
<path d="M232.213 52.7332C232.261 53.935 232.042 55.1324 231.573 56.2399C231.516 56.3537 231.502 56.4847 231.536 56.6077C231.569 56.7308 231.646 56.8372 231.753 56.9066C231.866 56.9672 231.998 56.9824 232.122 56.9489C232.246 56.9155 232.353 56.8359 232.42 56.7266C232.971 55.4669 233.236 54.1009 233.197 52.7266C233.197 52.594 233.144 52.4668 233.05 52.373C232.956 52.2792 232.829 52.2266 232.697 52.2266C232.564 52.2266 232.437 52.2792 232.343 52.373C232.249 52.4668 232.197 52.594 232.197 52.7266L232.213 52.7332Z" fill="#F4F2F1"/>
<path d="M211.49 77.2291C211.796 77.4206 212.149 77.5211 212.51 77.5191C212.883 77.5424 213.26 77.5524 213.633 77.5691L215.933 77.6624C216.066 77.6615 216.192 77.6086 216.286 77.515C216.379 77.4214 216.432 77.2947 216.433 77.1624C216.431 77.0306 216.377 76.9049 216.284 76.8117C216.191 76.7184 216.065 76.6649 215.933 76.6624L213.797 76.5757L212.73 76.5291C212.475 76.5507 212.219 76.4937 211.997 76.3657C211.94 76.3325 211.877 76.3107 211.812 76.3016C211.747 76.2926 211.681 76.2965 211.617 76.313C211.554 76.3296 211.494 76.3585 211.441 76.3981C211.389 76.4378 211.345 76.4874 211.312 76.5441C211.278 76.6007 211.257 76.6634 211.248 76.7285C211.239 76.7936 211.242 76.8599 211.259 76.9235C211.276 76.9871 211.304 77.0468 211.344 77.0993C211.384 77.1517 211.433 77.1958 211.49 77.2291Z" fill="#F4F2F1"/>
<path d="M214.137 26.9484C215.404 27.467 216.798 27.5914 218.137 27.3051C218.202 27.2891 218.263 27.2603 218.316 27.2203C218.37 27.1803 218.415 27.13 218.449 27.0723C218.483 27.0145 218.505 26.9506 218.513 26.8843C218.522 26.8179 218.517 26.7505 218.5 26.686C218.482 26.6216 218.451 26.5613 218.41 26.5089C218.368 26.4564 218.316 26.4129 218.258 26.3808C218.199 26.3487 218.134 26.3287 218.068 26.3219C218.001 26.3152 217.934 26.322 217.87 26.3417C216.706 26.5743 215.498 26.4488 214.407 25.9817C214.279 25.9478 214.142 25.9654 214.027 26.0309C213.912 26.0963 213.827 26.2043 213.79 26.3317C213.757 26.4576 213.773 26.5913 213.835 26.7058C213.897 26.8203 214 26.907 214.123 26.9484H214.137Z" fill="#F4F2F1"/>
</g>
<defs>
<clipPath id="clip0_2051_27619">
<rect width="523" height="276" fill="white"/>
</clipPath>
</defs>
</svg>
