<svg width="36" height="36" viewBox="0 0 36 36" fill="none" xmlns="http://www.w3.org/2000/svg">
<rect width="36" height="36" rx="18" fill="#E7EEFE"/>
<path d="M27.6338 10.0318C26.8188 10.4168 25.4318 11.1388 24.7348 11.2768C24.7078 11.2838 24.6858 11.2928 24.6598 11.2998C23.8468 10.4978 22.7328 10.0008 21.4998 10.0008C19.0148 10.0008 16.9998 12.0158 16.9998 14.5008C16.9998 14.6318 16.9888 14.8728 16.9998 15.0008C13.7818 15.0008 11.4318 13.3218 9.67284 11.1638C9.43784 10.8738 9.18784 11.0248 9.13584 11.2308C9.01884 11.6968 8.97884 12.4758 8.97884 13.0318C8.97884 14.4328 10.0738 15.8088 11.7788 16.6618C11.4648 16.7428 11.1188 16.8008 10.7588 16.8008C10.3348 16.8008 9.84684 16.6898 9.41984 16.4658C9.26184 16.3828 8.92084 16.4058 9.02184 16.8098C9.42684 18.4288 11.2748 19.5658 12.9258 19.8968C12.5508 20.1178 11.7508 20.0728 11.3828 20.0728C11.2468 20.0728 10.7738 20.0408 10.4678 20.0028C10.1888 19.9688 9.75984 20.0408 10.1188 20.5848C10.8898 21.7518 12.6338 22.4848 14.1348 22.5128C12.7528 23.5968 10.4928 23.9928 8.32784 23.9928C7.88984 23.9828 7.91184 24.4818 8.26484 24.6668C9.86184 25.5048 12.4778 26.0008 14.3468 26.0008C21.7768 26.0008 25.9998 20.3378 25.9998 14.9998C25.9998 14.9138 25.9978 14.7338 25.9948 14.5528C25.9948 14.5348 25.9998 14.5178 25.9998 14.4998C25.9998 14.4728 25.9918 14.4468 25.9918 14.4198C25.9888 14.2838 25.9858 14.1568 25.9828 14.0908C26.5718 13.6658 27.4738 12.9278 27.9298 12.3628C28.0848 12.1708 27.9598 11.9378 27.7488 12.0108C27.2058 12.1998 26.2668 12.5658 25.6788 12.6358C26.8558 11.8568 27.4378 11.1788 27.9378 10.4258C28.1088 10.1688 27.8948 9.90782 27.6338 10.0318Z" fill="#1144C5"/>
</svg>
