<svg width="523" height="276" viewBox="0 0 523 276" fill="none" xmlns="http://www.w3.org/2000/svg">
<g clip-path="url(#clip0_2042_26583)">
<path d="M191.187 234.384C190.812 233.265 190.792 232.057 191.13 230.926C191.469 229.795 192.149 228.797 193.077 228.068C195.887 225.864 199.634 222.051 199.884 217.234C200.284 209.474 200.694 194.691 210.284 191.121C210.284 191.121 208.07 203.238 236.044 208.628C236.044 208.628 258.947 214.821 267.71 205.214C267.71 205.214 273.11 216.924 267.1 228.461C263.334 235.724 262.924 242.001 263.154 245.621C263.228 246.755 262.966 247.885 262.4 248.87C261.835 249.855 260.99 250.651 259.974 251.158C254.604 253.824 244.34 256.938 236.074 247.898C224.847 235.618 200.297 261.501 191.187 234.384Z" fill="#1043C1"/>
<path d="M248.377 30.0195C248.377 30.0195 234.023 62.0862 233.84 78.2229L269.246 116.18C269.246 116.18 305.433 103.053 317.127 102.943L326.877 71.5395L317.73 51.8729L279.667 41.2929L248.377 30.0195Z" fill="white"/>
<path d="M298.26 33.4219L279.657 39.9885L287.56 42.2585L304.853 45.2219L298.26 33.4219Z" fill="#1D2A62"/>
<path d="M326.18 80.5508L319.64 102.944L332.16 100.971L326.18 80.5508Z" fill="#1D2A62"/>
<path d="M221.144 63.6047L232.04 75.108L232.38 68.4914L234.99 59.5547L221.144 63.6047Z" fill="#1D2A62"/>
<path d="M271.623 71.5518C271.623 71.5518 270.623 66.6118 273.527 68.5518C274.13 68.9584 277.107 72.6651 279.02 75.0851C279.46 75.6485 280.099 76.0227 280.806 76.1311C281.513 76.2395 282.234 76.074 282.823 75.6684C287.42 72.5051 297.9 65.5584 299.98 66.4918C305.313 68.8784 281.187 81.4218 281.187 81.4218C281.187 81.4218 272.923 81.3351 271.623 71.5518Z" fill="#1043C1"/>
<path d="M220.644 63.6036C220.1 72.8803 217.084 81.8036 214.437 90.6436L206.237 118.027L201.61 133.47C201.424 134.087 202.39 134.35 202.574 133.734C205.329 124.527 208.087 115.32 210.847 106.114C212.222 101.525 213.598 96.9347 214.974 92.3436C216.307 87.8569 217.714 83.3836 218.927 78.8603C220.26 73.8603 221.34 68.7769 221.644 63.6036C221.68 62.9603 220.68 62.9603 220.644 63.6036Z" fill="black"/>
<path d="M202.134 134.445C202.294 134.445 202.014 134.418 202.164 134.445L202.35 134.478C202.508 134.511 202.665 134.548 202.82 134.588C203.26 134.705 203.694 134.835 204.13 134.971C205.464 135.378 206.75 135.828 208.05 136.285C211.94 137.648 215.804 139.085 219.664 140.528C224.33 142.275 228.997 144.036 233.664 145.811C238.074 147.478 242.48 149.145 246.897 150.811C249.94 151.948 252.98 153.098 256.06 154.145L256.77 154.381C257.387 154.581 257.647 153.615 257.037 153.418C254.174 152.488 251.35 151.418 248.53 150.365C244.212 148.758 239.905 147.133 235.607 145.491C230.902 143.713 226.197 141.936 221.49 140.158C217.474 138.651 213.454 137.158 209.407 135.715C207.99 135.211 206.567 134.715 205.134 134.251C204.296 133.956 203.443 133.71 202.577 133.515C202.43 133.488 202.28 133.465 202.134 133.448C201.494 133.388 201.497 134.388 202.134 134.448V134.445Z" fill="black"/>
<path d="M286.443 162.822C289.387 163.489 292.327 164.209 295.227 165.052C297.7 165.776 300.133 166.609 302.56 167.492C304.297 168.129 306.023 168.782 307.753 169.436C308.353 169.662 308.617 168.696 308.017 168.469C302.777 166.486 297.537 164.559 292.103 163.159C290.313 162.699 288.517 162.272 286.717 161.859C286.09 161.712 285.823 162.679 286.45 162.822H286.443Z" fill="black"/>
<path d="M308.333 169.237C311.116 159.927 314.39 150.769 318.14 141.804C321.713 133.267 325.967 125.004 329.077 116.281C330.846 111.475 332.062 106.482 332.7 101.401C332.773 100.764 331.773 100.771 331.7 101.401C330.647 110.514 327.147 119.101 323.43 127.401C321.54 131.627 319.59 135.824 317.78 140.067C315.907 144.481 314.147 148.94 312.5 153.444C310.638 158.555 308.924 163.723 307.36 168.947C307.177 169.564 308.14 169.827 308.327 169.214L308.333 169.237Z" fill="black"/>
<path d="M332.2 100.602C323.778 101.631 315.411 103.029 307.1 104.795C298.878 106.549 290.753 108.665 282.727 111.145C278.151 112.552 273.613 114.07 269.113 115.699C268.51 115.915 268.78 116.882 269.377 116.662C277.321 113.795 285.373 111.267 293.533 109.079C301.622 106.921 309.797 105.125 318.057 103.692C322.754 102.874 327.469 102.177 332.2 101.602C332.833 101.525 332.84 100.525 332.2 100.602Z" fill="black"/>
<path d="M269.167 115.332L249.447 94.3057C246.185 90.8279 242.925 87.349 239.667 83.869C238.1 82.2023 236.54 80.509 235 78.7924C233.53 77.1257 232.15 75.4123 230.667 73.7757C227.57 70.359 224.027 67.2957 221.57 63.349C221.237 62.8023 220.367 63.3057 220.707 63.8524C222.893 67.369 225.917 70.209 228.75 73.1857C230.243 74.7524 231.61 76.4224 233.03 78.0557C234.567 79.829 236.15 81.5657 237.75 83.289C244.247 90.289 250.813 97.229 257.347 104.199L268.457 116.042C268.897 116.512 269.603 115.806 269.163 115.336L269.167 115.332Z" fill="black"/>
<path d="M240.617 175.535C240.616 172.664 241.301 169.834 242.617 167.282C243.831 164.984 245.407 162.897 247.283 161.099C250.033 158.434 253.193 156.229 256.643 154.569C260.216 152.85 264.156 152.037 268.117 152.199C268.763 152.225 268.76 151.225 268.117 151.199C264.114 151.044 260.132 151.843 256.5 153.532C255.186 154.152 253.911 154.852 252.683 155.629C248.48 158.262 244.593 161.715 242.14 166.075C240.497 168.958 239.628 172.217 239.617 175.535C239.617 175.668 239.669 175.795 239.763 175.889C239.857 175.983 239.984 176.035 240.117 176.035C240.249 176.035 240.376 175.983 240.47 175.889C240.564 175.795 240.617 175.668 240.617 175.535Z" fill="black"/>
<path d="M268.537 151.639C268.5 149.936 269.064 148.306 269.81 146.806C270.464 145.485 271.212 144.213 272.047 142.999C273.654 140.66 275.549 138.532 277.687 136.666C279.823 134.794 282.185 133.197 284.717 131.909C287.197 130.649 289.877 129.606 292.644 129.216C295.524 128.809 298.73 129.156 300.84 131.349C301.287 131.816 301.994 131.106 301.547 130.643C299.57 128.586 296.687 127.936 293.917 128.093C290.997 128.256 288.184 129.206 285.537 130.426C280.062 132.931 275.322 136.802 271.774 141.666C270.775 143.027 269.884 144.464 269.107 145.963C268.204 147.726 267.487 149.629 267.53 151.629C267.53 152.273 268.53 152.276 268.53 151.629L268.537 151.639Z" fill="black"/>
<path d="M300.797 131.297C301.24 134.297 299.353 137.067 297.82 139.461C296.153 142.044 294.467 144.604 292.89 147.234C291.294 149.843 289.896 152.567 288.707 155.384C287.497 158.311 286.547 161.334 285.22 164.214C282.74 169.601 279.453 174.547 276.413 179.614C273.593 184.321 270.907 189.104 268.233 193.894C265.597 198.627 262.987 203.374 260.32 208.091L259.42 209.671C259.087 210.231 259.967 210.737 260.283 210.177C262.95 205.511 265.547 200.784 268.163 196.077C270.883 191.191 273.613 186.304 276.463 181.491C279.463 176.431 282.743 171.531 285.353 166.251C286.757 163.411 287.823 160.454 288.943 157.497C290.057 154.58 291.406 151.759 292.977 149.061C294.523 146.394 296.217 143.791 297.893 141.191C299.483 138.731 301.383 136.154 301.787 133.191C301.879 132.479 301.871 131.757 301.763 131.047C301.67 130.411 300.703 130.681 300.797 131.311V131.297Z" fill="black"/>
<path d="M224.55 142.023C224.15 145.85 223.823 149.683 223.57 153.523C223.45 155.396 223.353 157.273 223.297 159.15C223.23 161.32 223.233 163.483 223.14 165.666C222.96 169.91 222.163 174.056 221.317 178.213C220.59 181.769 219.842 185.324 219.073 188.88C218.217 192.83 217.333 196.78 216.373 200.71C216.22 201.333 217.187 201.6 217.34 200.973C219.073 193.883 220.587 186.736 222.053 179.586C222.877 175.586 223.74 171.553 224.053 167.463C224.367 163.373 224.26 159.186 224.497 155.053C224.74 150.72 225.117 146.36 225.567 142.023C225.633 141.386 224.633 141.39 224.567 142.023H224.55Z" fill="black"/>
<path d="M296.333 128.726C294.746 130.32 293.536 132.249 292.793 134.372C292.426 135.433 292.18 136.533 292.06 137.649C291.953 138.596 291.803 139.856 292.633 140.536C293.127 140.942 293.837 140.239 293.34 139.829C293.007 139.549 292.977 139.122 292.983 138.706C292.995 138.218 293.038 137.731 293.11 137.249C293.256 136.271 293.504 135.312 293.85 134.386C294.545 132.524 295.635 130.834 297.043 129.432C297.137 129.338 297.189 129.211 297.189 129.078C297.189 128.945 297.136 128.818 297.042 128.724C296.947 128.63 296.82 128.578 296.687 128.578C296.554 128.578 296.427 128.631 296.333 128.726Z" fill="black"/>
<path d="M220.123 187.119C219.224 186.754 218.263 186.565 217.293 186.562C215.999 186.485 214.701 186.639 213.46 187.016C212.199 187.369 211.103 188.155 210.363 189.236C210.069 189.764 209.879 190.345 209.807 190.946C209.678 191.694 209.631 192.454 209.667 193.212C209.68 193.902 209.831 194.582 210.11 195.212C210.5 196.003 210.968 196.754 211.507 197.452C212.581 198.858 213.855 200.1 215.287 201.139C216.734 202.188 218.3 203.062 219.953 203.742C221.953 204.576 223.953 205.346 225.997 206.076C232.44 208.379 239.107 210.189 245.917 210.992C250.117 211.486 254.45 211.626 258.627 210.842C260.136 210.557 261.605 210.087 263 209.442C264.553 208.732 266.097 207.752 266.963 206.232C267.697 204.942 267.843 203.359 267.023 202.069C266.565 201.378 265.948 200.806 265.223 200.402C265.109 200.341 264.976 200.327 264.851 200.362C264.727 200.397 264.62 200.479 264.555 200.591C264.49 200.703 264.471 200.836 264.501 200.962C264.532 201.087 264.61 201.196 264.72 201.266C265.967 202.006 266.88 203.216 266.503 204.722C266.113 206.292 264.777 207.372 263.417 208.112C262.007 208.868 260.496 209.416 258.93 209.739C255.263 210.529 251.377 210.486 247.63 210.152C241.587 209.612 235.63 208.176 229.87 206.322C228.039 205.736 226.225 205.104 224.43 204.429C222.568 203.777 220.741 203.029 218.957 202.189C215.987 200.712 213.267 198.562 211.527 195.706C211.131 195.132 210.855 194.485 210.717 193.802C210.62 193.106 210.613 192.4 210.697 191.702C210.813 190.536 211.117 189.542 212.073 188.802C213.827 187.449 216.543 187.302 218.647 187.702C218.833 187.739 219.023 187.782 219.207 187.836C219.297 187.859 219.383 187.889 219.47 187.919C219.518 187.934 219.564 187.951 219.61 187.972C220.19 188.242 220.697 187.379 220.113 187.109L220.123 187.119Z" fill="black"/>
<path d="M211.247 187.739C205.114 188.072 200.757 193.476 198.89 198.896C196.617 205.512 197.007 212.746 194.397 219.269C193.16 222.369 191.22 225.269 188.344 227.052C187.797 227.386 188.3 228.256 188.85 227.916C194.137 224.629 196.237 218.302 197.25 212.482C198.394 205.906 198.644 198.582 203.144 193.229C205.187 190.792 208 188.896 211.247 188.739C211.887 188.706 211.89 187.706 211.247 187.739Z" fill="black"/>
<path d="M266.614 203.871C268.137 207.261 269.054 210.937 268.947 214.667C268.866 217.397 268.251 220.084 267.137 222.577C266.345 224.317 265.365 225.965 264.214 227.491C263.824 228.021 263.407 228.534 263.044 229.087C262.061 230.63 261.374 232.343 261.02 234.137C260.157 238.294 260.687 242.594 261.25 246.751C261.289 246.875 261.375 246.979 261.49 247.041C261.604 247.103 261.738 247.118 261.864 247.084C261.986 247.043 262.089 246.956 262.15 246.843C262.212 246.729 262.229 246.596 262.197 246.471C261.684 242.731 261.197 238.851 261.834 235.097C262.112 233.266 262.739 231.506 263.68 229.911C264.07 229.274 264.53 228.691 264.977 228.094C267.744 224.387 269.594 220.094 269.894 215.427C270.164 211.257 269.16 207.137 267.46 203.351C267.197 202.764 266.334 203.271 266.594 203.854L266.614 203.871Z" fill="black"/>
<path d="M232.363 75.5094C231.95 72.6228 232.553 69.6528 233.263 66.8628C234.017 63.9061 234.903 60.9828 235.803 58.0694C237.668 52.0406 239.74 46.0828 242.02 40.1961C243.313 36.8628 244.673 33.5539 246.1 30.2694C246.353 29.6861 245.493 29.1761 245.237 29.7661C242.672 35.6661 240.318 41.6506 238.173 47.7194C236.057 53.7194 234.097 59.8061 232.467 65.9594C231.623 69.1394 230.927 72.4794 231.4 75.7761C231.49 76.4094 232.453 76.1394 232.363 75.5094Z" fill="black"/>
<path d="M245.817 30.5154C250.787 30.9287 255.647 32.1287 260.387 33.6454C265.127 35.162 269.843 37.012 274.557 38.7287C279.27 40.4454 284.037 42.062 288.95 43.062C294.343 44.192 299.86 44.6187 305.243 45.7987C309.783 46.7987 314.327 48.3654 318.147 51.072C318.623 51.4054 319.08 51.7654 319.527 52.1387C319.973 52.5121 320.727 51.8487 320.233 51.432C316.607 48.3754 312.097 46.5254 307.55 45.3287C302.297 43.942 296.86 43.4887 291.527 42.5421C286.43 41.6387 281.493 40.1287 276.623 38.3987C271.843 36.7021 267.13 34.8254 262.32 33.2121C257.51 31.5987 252.697 30.2954 247.707 29.6954C247.078 29.6176 246.448 29.5532 245.817 29.5021C245.177 29.4487 245.18 30.4521 245.817 30.5021V30.5154Z" fill="black"/>
<path d="M319.023 51.63L316.403 57.42C315.62 59.16 314.703 61.0233 314.483 62.9433C314.273 64.77 316 65.9633 317.483 66.61C319.15 67.3233 320.967 67.57 322.717 68C324.946 68.5485 327.131 69.2593 329.257 70.1267C329.853 70.3667 330.113 69.4 329.523 69.16C327.763 68.4448 325.962 67.8348 324.13 67.3333C322.463 66.8767 320.743 66.6067 319.087 66.1233C318.324 65.9153 317.594 65.6035 316.917 65.1967C316.29 64.8067 315.54 64.2233 315.463 63.4333C315.458 62.98 315.53 62.529 315.677 62.1C315.8 61.6333 315.947 61.17 316.11 60.7167C316.413 59.8667 316.777 59.05 317.143 58.22C318.054 56.1956 318.969 54.1733 319.887 52.1533C320.15 51.57 319.287 51.06 319.023 51.6467V51.63Z" fill="black"/>
<path d="M329.027 69.8109C329.36 70.7942 328.963 71.7509 328.51 72.6242C328.033 73.5542 327.51 74.4442 327.117 75.4109C326.287 77.4109 325.693 79.5209 325.047 81.5842C323.682 85.9153 322.39 90.2653 321.17 94.6342C320.477 97.1098 319.81 99.5909 319.17 102.078C319.147 102.201 319.172 102.329 319.239 102.436C319.305 102.542 319.41 102.62 319.531 102.653C319.652 102.687 319.782 102.674 319.894 102.617C320.006 102.559 320.093 102.462 320.137 102.344C321.31 97.8487 322.554 93.3709 323.87 88.9109C324.523 86.7065 325.19 84.5098 325.87 82.3209C326.537 80.1942 327.147 78.0309 327.97 75.9609C328.417 74.8376 329.067 73.8276 329.577 72.7376C330.05 71.7376 330.36 70.6376 329.997 69.5442C329.797 68.9376 328.83 69.2109 329.033 69.8109H329.027Z" fill="black"/>
<path d="M319.447 52.0519L328.747 69.5553C329.047 70.122 329.91 69.6186 329.61 69.0486L320.313 51.5453C320.01 50.9786 319.147 51.4819 319.447 52.0519Z" fill="black"/>
<path d="M221.273 64.1299C221.95 63.7758 222.587 63.35 223.173 62.8599C223.733 62.4532 224.317 62.0765 224.913 61.7265C226.113 61.0199 227.367 60.4165 228.627 59.8332C231.19 58.6499 233.807 57.5299 236.09 55.8332C236.603 55.4532 236.09 54.5832 235.587 54.9665C233.303 56.6565 230.687 57.7765 228.123 58.9665C226.863 59.5499 225.607 60.1532 224.41 60.8599C223.813 61.2099 223.23 61.5865 222.67 61.9932C222.083 62.4819 221.446 62.9075 220.77 63.2632C220.183 63.5232 220.69 64.3865 221.273 64.1265V64.1299Z" fill="black"/>
<path d="M277.08 39.5374C279.867 39.2307 282.414 37.8007 284.9 36.5674C287.387 35.334 289.9 33.9874 292.524 32.9007C293.98 32.2992 295.476 31.7981 297 31.4007C297.118 31.3567 297.215 31.2701 297.272 31.1581C297.33 31.046 297.343 30.9166 297.309 30.7953C297.276 30.674 297.198 30.5696 297.092 30.5027C296.985 30.4359 296.857 30.4113 296.734 30.434C291.374 31.8307 286.607 34.7374 281.624 37.0507C280.18 37.7174 278.684 38.3607 277.087 38.5374C276.454 38.604 276.447 39.6074 277.087 39.5374H277.08Z" fill="black"/>
<path d="M296.42 31.2618C298.999 36.2083 301.953 40.95 305.257 45.4451C305.637 45.9551 306.503 45.4451 306.12 44.9385C302.817 40.444 299.863 35.7035 297.283 30.7585C296.987 30.1885 296.123 30.6918 296.42 31.2618Z" fill="black"/>
<path d="M325.7 79.1396C325.934 80.5721 326.291 81.9817 326.767 83.3529C327.227 84.784 327.654 86.2229 328.05 87.6696C328.84 90.5596 329.53 93.4762 330.303 96.3729C330.74 98.0029 331.203 99.6296 331.72 101.236C331.917 101.846 332.88 101.586 332.683 100.97C330.85 95.2762 329.737 89.3829 327.923 83.6829C327.369 82.118 326.949 80.5089 326.667 78.8729C326.58 78.2396 325.613 78.5096 325.703 79.1396H325.7Z" fill="black"/>
<path d="M270.833 68.8323C270.71 67.8589 270.626 66.5156 271.583 65.9056C272.54 65.2956 273.723 66.1056 274.38 66.8223C275.118 67.7031 275.801 68.6282 276.426 69.5923L278.713 72.8156C279.083 73.3356 279.95 72.8389 279.576 72.3123L276.813 68.4156C276.066 67.3656 275.363 66.1923 274.313 65.4156C273.263 64.6389 271.87 64.3856 270.83 65.2256C269.79 66.0656 269.673 67.5589 269.83 68.8356C269.91 69.4656 270.91 69.4756 270.83 68.8356L270.833 68.8323Z" fill="black"/>
<path d="M281.94 74.8733L293.15 67.7366C294.646 66.7833 296.483 65.2966 298.373 65.5333C298.742 65.5756 299.098 65.6933 299.419 65.8791C299.74 66.0649 300.019 66.3148 300.24 66.6133C300.696 67.2799 300.543 68.0299 300.173 68.6966C299.754 69.4389 299.158 70.0654 298.436 70.5199C297.506 71.0999 296.56 71.6466 295.616 72.2066C294.013 73.1599 292.433 74.1499 290.86 75.1499C289.226 76.1933 287.596 77.2433 285.956 78.2699C285.19 78.7499 284.42 79.2266 283.643 79.6899C282.846 80.2323 281.973 80.6546 281.053 80.9433C279.053 81.4466 276.997 79.9666 275.61 78.6733C274.053 77.2166 273.043 75.3133 272.053 73.4533C271.753 72.8833 270.89 73.3866 271.19 73.9566C272.153 75.7699 273.146 77.6233 274.6 79.0866C275.933 80.4399 277.7 81.7266 279.63 81.9899C281.696 82.2733 283.496 80.9599 285.166 79.9366C286.92 78.8633 288.646 77.7499 290.38 76.6433C292.113 75.5366 293.85 74.4266 295.62 73.3699C296.62 72.7766 297.603 72.1933 298.59 71.5933C299.405 71.1245 300.116 70.4965 300.683 69.7466C301.2 69.0433 301.616 68.1533 301.52 67.2599C301.461 66.8474 301.315 66.452 301.092 66.0998C300.869 65.7477 300.574 65.4467 300.226 65.2166C298.596 64.0533 296.603 64.5499 294.976 65.4366C293.86 66.0399 292.806 66.7699 291.733 67.4533L288.303 69.6399L281.436 73.9999C280.893 74.3333 281.396 75.2099 281.94 74.8633V74.8733Z" fill="black"/>
<path d="M277.41 66.6127C279.191 65.7696 281.156 65.3879 283.123 65.5027C284.095 65.5097 285.062 65.6431 286 65.8994C286.91 66.2092 287.758 66.6788 288.503 67.286C289.017 67.6727 289.503 66.806 289.01 66.4227C288.212 65.7849 287.31 65.2898 286.343 64.9594C285.302 64.666 284.225 64.5124 283.143 64.5027C280.999 64.3876 278.861 64.8164 276.927 65.7494C276.35 66.036 276.857 66.8994 277.43 66.6127H277.41Z" fill="black"/>
<path d="M294.197 75.214C294.305 76.5988 294.066 77.9887 293.5 79.2573C293.002 80.5107 292.388 81.7148 291.667 82.854C290.934 83.903 290.012 84.8071 288.95 85.5207C287.942 86.3244 286.768 86.8937 285.513 87.1873C284.099 87.4382 282.658 87.5032 281.227 87.3807C279.916 87.3537 278.611 87.1917 277.333 86.8973C274.794 86.238 272.601 84.6378 271.199 82.4212C269.796 80.2045 269.289 77.5374 269.78 74.9607C269.897 74.334 268.933 74.064 268.817 74.6973C268.314 77.3913 268.78 80.1761 270.13 82.5607C271.451 84.8273 273.51 86.5713 275.963 87.5007C277.226 87.9493 278.548 88.2088 279.887 88.2707C281.467 88.4356 283.06 88.449 284.643 88.3107C286.065 88.1715 287.434 87.7036 288.643 86.944C289.818 86.2377 290.884 85.3641 291.807 84.3507C292.843 83.1273 293.58 81.6007 294.223 80.1373C294.89 78.5873 295.407 76.924 295.223 75.214C295.153 74.5807 294.153 74.574 294.223 75.214H294.197Z" fill="black"/>
<path d="M216.863 224.602C216.505 226.589 216.841 228.638 217.817 230.406C218.13 230.969 218.993 230.462 218.68 229.899C217.832 228.368 217.531 226.594 217.827 224.869C217.859 224.741 217.84 224.605 217.775 224.491C217.71 224.376 217.603 224.29 217.477 224.252C217.351 224.218 217.217 224.233 217.103 224.295C216.988 224.358 216.903 224.462 216.863 224.586V224.602Z" fill="#F4F2F1"/>
<path d="M238.667 228.108C240.645 227.353 242.277 225.899 243.257 224.022C243.321 223.906 243.338 223.77 243.304 223.642C243.271 223.514 243.189 223.404 243.077 223.335C242.962 223.27 242.826 223.253 242.698 223.286C242.571 223.32 242.461 223.402 242.393 223.515C241.546 225.172 240.124 226.462 238.393 227.145C238.27 227.187 238.168 227.274 238.106 227.388C238.044 227.502 238.028 227.636 238.06 227.762C238.099 227.887 238.186 227.991 238.301 228.053C238.416 228.116 238.551 228.131 238.677 228.095L238.667 228.108Z" fill="#F4F2F1"/>
<path d="M214.933 208.002L210.67 212.668C210.24 213.142 210.943 213.852 211.376 213.375L215.64 208.708C216.073 208.235 215.366 207.525 214.933 208.002Z" fill="#F4F2F1"/>
<path d="M199.45 227.063C200.204 228.717 201.251 230.222 202.54 231.503C202.635 231.592 202.76 231.64 202.89 231.637C203.019 231.635 203.143 231.583 203.235 231.491C203.326 231.4 203.379 231.276 203.381 231.146C203.383 231.017 203.335 230.891 203.247 230.797C202.021 229.572 201.027 228.136 200.313 226.557C200.245 226.444 200.136 226.362 200.008 226.329C199.88 226.295 199.744 226.314 199.63 226.38C199.518 226.449 199.436 226.558 199.403 226.685C199.369 226.813 199.386 226.948 199.45 227.063Z" fill="#F4F2F1"/>
<path d="M256.17 220.002L260.063 223.442C260.158 223.533 260.285 223.584 260.417 223.584C260.548 223.584 260.675 223.533 260.77 223.442C260.863 223.347 260.915 223.22 260.915 223.088C260.915 222.956 260.863 222.829 260.77 222.735L256.88 219.295C256.784 219.203 256.657 219.152 256.525 219.152C256.393 219.152 256.265 219.203 256.17 219.295C256.078 219.389 256.026 219.516 256.026 219.648C256.026 219.78 256.078 219.907 256.17 220.002Z" fill="#F4F2F1"/>
<path d="M251.133 240.155C249.309 240.762 247.701 241.888 246.507 243.395C246.416 243.49 246.366 243.617 246.366 243.748C246.366 243.88 246.416 244.006 246.507 244.102C246.601 244.195 246.728 244.247 246.86 244.247C246.992 244.247 247.119 244.195 247.213 244.102C248.288 242.72 249.743 241.683 251.4 241.118C251.465 241.102 251.526 241.074 251.58 241.034C251.633 240.994 251.678 240.943 251.712 240.886C251.746 240.828 251.768 240.764 251.777 240.698C251.785 240.631 251.781 240.564 251.763 240.499C251.745 240.435 251.714 240.375 251.673 240.322C251.631 240.27 251.58 240.226 251.521 240.194C251.462 240.162 251.398 240.142 251.331 240.135C251.265 240.129 251.197 240.135 251.133 240.155Z" fill="#F4F2F1"/>
<path d="M231.647 214.002C232.369 215.122 233.022 216.285 233.603 217.485C233.671 217.599 233.78 217.681 233.908 217.715C234.036 217.749 234.172 217.731 234.287 217.665C234.394 217.596 234.472 217.49 234.505 217.366C234.539 217.243 234.525 217.112 234.467 216.998C233.887 215.798 233.233 214.635 232.51 213.515C232.442 213.407 232.335 213.328 232.212 213.295C232.088 213.262 231.957 213.276 231.843 213.335C231.734 213.402 231.654 213.509 231.621 213.633C231.587 213.757 231.603 213.889 231.663 214.002H231.647Z" fill="#F4F2F1"/>
<path d="M203.38 197.474C204.582 198.618 205.696 199.85 206.714 201.161C206.808 201.253 206.935 201.305 207.067 201.305C207.199 201.305 207.326 201.253 207.42 201.161C207.511 201.065 207.561 200.939 207.561 200.807C207.561 200.676 207.511 200.549 207.42 200.454C206.403 199.144 205.288 197.911 204.087 196.767C203.992 196.676 203.865 196.625 203.734 196.625C203.602 196.625 203.475 196.676 203.38 196.767C203.287 196.861 203.235 196.988 203.235 197.121C203.235 197.253 203.287 197.38 203.38 197.474Z" fill="#F4F2F1"/>
<path d="M202.333 69.84C203.233 69.2734 204.143 68.7334 205.066 68.21C205.181 68.1432 205.264 68.0337 205.298 67.9056C205.332 67.7775 205.313 67.6412 205.246 67.5267C205.178 67.4186 205.072 67.34 204.948 67.3067C204.825 67.2734 204.693 67.2876 204.58 67.3467C203.656 67.87 202.743 68.41 201.846 68.9767C201.787 69.0084 201.735 69.0517 201.693 69.1041C201.651 69.1564 201.62 69.2167 201.601 69.2814C201.583 69.346 201.578 69.4137 201.586 69.4803C201.595 69.547 201.617 69.6113 201.651 69.6693C201.684 69.7273 201.73 69.778 201.783 69.8182C201.837 69.8583 201.899 69.8873 201.964 69.9032C202.029 69.9191 202.097 69.9218 202.163 69.9109C202.23 69.9 202.293 69.8759 202.35 69.84H202.333Z" fill="black"/>
<path d="M189.027 198.712C183.52 191.085 178.454 183.082 174.637 174.462C171.02 166.335 168.694 157.693 167.744 148.848C166.708 139.442 167.108 129.934 168.93 120.648C170.75 111.553 174.048 102.817 178.694 94.7882C183.273 86.8243 189.293 79.7813 196.447 74.0182C197.334 73.3116 198.244 72.6316 199.167 71.9716C199.684 71.6016 199.187 70.7316 198.66 71.1082C191.146 76.5445 184.726 83.3503 179.737 91.1682C174.694 99.0475 170.988 107.707 168.77 116.795C166.537 126.114 165.75 135.72 166.437 145.278C167.024 154.312 169.024 163.197 172.364 171.612C175.834 180.322 180.627 188.428 185.967 196.112C186.691 197.152 187.424 198.185 188.164 199.212C188.537 199.728 189.407 199.228 189.027 198.705V198.712Z" fill="black"/>
<path d="M282.25 228.418C281.252 228.465 280.252 228.49 279.25 228.495C279.117 228.495 278.99 228.547 278.896 228.641C278.803 228.735 278.75 228.862 278.75 228.995C278.75 229.127 278.803 229.254 278.896 229.348C278.99 229.442 279.117 229.495 279.25 229.495C280.243 229.495 281.243 229.469 282.25 229.418C282.383 229.418 282.51 229.365 282.604 229.272C282.697 229.178 282.75 229.051 282.75 228.918C282.75 228.785 282.697 228.658 282.604 228.564C282.51 228.471 282.383 228.418 282.25 228.418Z" fill="black"/>
<path d="M336.444 86.5948C341.59 89.9222 346.035 94.2254 349.527 99.2615C353.234 104.725 355.377 110.998 356.76 117.411C359.358 129.481 359.789 141.917 358.034 154.138C356.284 166.245 352.344 178.065 346.104 188.608C340.193 198.581 332.26 207.205 322.814 213.925C313.56 220.505 302.95 225.205 291.774 227.292C290.38 227.556 288.981 227.778 287.577 227.958C286.947 228.038 286.937 229.038 287.577 228.958C299.094 227.508 310.167 223.331 319.934 217.085C329.731 210.824 338.124 202.598 344.58 192.928C351.494 182.528 356.07 170.645 358.344 158.388C360.591 146.137 360.653 133.584 358.527 121.311C357.397 114.741 355.704 108.158 352.527 102.258C349.533 96.8487 345.463 92.1101 340.567 88.3348C339.397 87.4148 338.19 86.5515 336.947 85.7315C336.407 85.3782 335.907 86.2448 336.444 86.5948Z" fill="black"/>
<path d="M323.94 46.1277C324.733 44.4586 325.814 42.9421 327.133 41.6477C327.593 41.1977 326.887 40.4911 326.427 40.9411C325.052 42.2902 323.924 43.8696 323.093 45.6077C323.03 45.7226 323.013 45.8575 323.046 45.9846C323.078 46.1117 323.159 46.2213 323.27 46.2911C323.385 46.3573 323.521 46.3759 323.649 46.3428C323.778 46.3098 323.888 46.2278 323.957 46.1144L323.94 46.1277Z" fill="black"/>
<path d="M325.87 50.3672L328.39 48.8939C328.449 48.8622 328.501 48.8189 328.543 48.7665C328.585 48.7142 328.617 48.6539 328.635 48.5892C328.653 48.5246 328.658 48.4569 328.65 48.3903C328.641 48.3236 328.62 48.2593 328.586 48.2013C328.552 48.1433 328.507 48.0926 328.453 48.0524C328.399 48.0122 328.338 47.9833 328.272 47.9674C328.207 47.9515 328.139 47.9488 328.073 47.9597C328.007 47.9706 327.943 47.9947 327.886 48.0306L325.366 49.5039C325.257 49.5731 325.179 49.6821 325.148 49.8079C325.117 49.9336 325.137 50.0664 325.202 50.1783C325.267 50.2901 325.373 50.3723 325.498 50.4076C325.622 50.4428 325.756 50.4284 325.87 50.3672Z" fill="black"/>
<path d="M269.333 93.4969C270.333 93.2535 271.387 93.7769 272.31 94.1002L275.41 95.1802L281.61 97.3469C282.22 97.5569 282.48 96.5935 281.877 96.3802L275.367 94.1102L272.203 93.0002C271.187 92.6469 270.163 92.2702 269.08 92.5335C268.457 92.6869 268.72 93.6502 269.347 93.4969H269.333Z" fill="black"/>
<path d="M271.356 99.4887L276.553 101.299C276.617 101.316 276.683 101.321 276.748 101.312C276.813 101.304 276.876 101.283 276.933 101.25C276.991 101.218 277.041 101.174 277.081 101.122C277.121 101.07 277.151 101.01 277.168 100.947C277.185 100.884 277.19 100.817 277.182 100.752C277.173 100.687 277.152 100.624 277.12 100.567C277.087 100.51 277.043 100.459 276.991 100.419C276.939 100.379 276.88 100.349 276.816 100.332L271.623 98.5253C271.495 98.4906 271.359 98.5079 271.244 98.5736C271.129 98.6392 271.045 98.7477 271.01 98.8753C270.977 99.0008 270.993 99.134 271.055 99.248C271.117 99.3619 271.22 99.448 271.343 99.4887H271.356Z" fill="black"/>
<path d="M201.177 124.461C201.053 126.275 200.48 128.03 199.51 129.568C199.177 130.114 200.03 130.618 200.373 130.074C201.433 128.382 202.056 126.453 202.187 124.461C202.187 124.328 202.134 124.201 202.04 124.107C201.946 124.014 201.819 123.961 201.687 123.961C201.555 123.963 201.429 124.017 201.336 124.11C201.243 124.203 201.189 124.329 201.187 124.461H201.177Z" fill="black"/>
<path d="M202.137 134.439C211.547 134.922 220.137 130.439 228.78 127.389C237.317 124.389 246.323 123.076 255.113 121.056C260.01 119.929 264.863 118.579 269.493 116.612C269.608 116.546 269.691 116.436 269.725 116.308C269.759 116.18 269.74 116.044 269.673 115.929C269.605 115.821 269.499 115.742 269.375 115.709C269.252 115.676 269.12 115.69 269.007 115.749C260.727 119.266 251.763 120.749 243.007 122.599C238.666 123.462 234.374 124.556 230.15 125.876C225.76 127.299 221.53 129.162 217.18 130.692C212.347 132.396 207.31 133.692 202.143 133.439C201.5 133.406 201.503 134.406 202.143 134.439H202.137Z" fill="black"/>
<path d="M268.763 116.312C268.98 117.575 269.763 118.615 270.46 119.645C271.246 120.805 272.013 121.979 272.773 123.162C274.243 125.442 275.69 127.735 277.213 129.979C278.113 131.312 279.043 132.622 280.003 133.909C280.386 134.419 281.253 133.909 280.866 133.405C277.596 129.025 274.79 124.339 271.763 119.795C270.986 118.632 269.97 117.462 269.726 116.042C269.62 115.409 268.656 115.675 268.763 116.305V116.312Z" fill="black"/>
<path d="M293.04 149.175C296.894 154.086 300.575 159.125 304.084 164.292C305.07 165.747 306.042 167.212 307 168.685C307.334 169.222 308.217 168.722 307.864 168.178C304.421 162.892 300.8 157.722 297 152.668C295.929 151.255 294.847 149.851 293.754 148.455C293.357 147.948 292.654 148.662 293.047 149.162L293.04 149.175Z" fill="black"/>
<path d="M173.267 106.483C177.9 108.693 182.557 110.866 187.173 113.116C188.95 113.983 190.84 114.993 191.84 116.783C192.92 118.696 192.643 120.956 192.003 122.963C191.297 125.173 190.14 127.2 189.09 129.256C187.963 131.479 186.882 133.714 185.847 135.963C184.811 138.212 183.827 140.481 182.893 142.77C181.977 145.006 181.163 147.283 180.267 149.53C179.82 150.653 179.227 151.74 178.233 152.47C177.341 153.1 176.303 153.491 175.217 153.606C172.593 153.94 170.05 152.863 167.72 151.79C167.14 151.523 166.63 152.383 167.217 152.653C169.45 153.683 171.82 154.686 174.327 154.653C176.37 154.633 178.52 153.913 179.847 152.296C180.553 151.355 181.099 150.303 181.463 149.183C181.9 148.013 182.34 146.85 182.797 145.673C183.743 143.253 184.743 140.855 185.797 138.48C186.87 136.066 187.994 133.676 189.17 131.31C190.26 129.113 191.503 126.976 192.423 124.706C193.267 122.65 193.88 120.373 193.423 118.133C192.97 115.986 191.457 114.41 189.637 113.296C188.527 112.653 187.384 112.069 186.213 111.546L182.17 109.616L173.783 105.616C173.207 105.34 172.697 106.203 173.28 106.48L173.267 106.483Z" fill="black"/>
<path d="M358.243 126.333C354.994 124.983 351.674 123.811 348.297 122.823C346.634 122.339 344.959 121.894 343.27 121.49C341.603 121.1 339.903 120.7 338.2 120.466C336.713 120.263 335.2 120.446 334.15 121.596C333.21 122.596 332.78 123.976 332.353 125.263C331.187 128.759 330.019 132.258 328.85 135.76L325.333 146.333C324.767 148.033 324.177 149.723 323.643 151.433C323.088 153.047 322.757 154.729 322.66 156.433C322.611 157.778 322.877 159.116 323.437 160.339C323.998 161.563 324.837 162.638 325.887 163.48C327.863 165.09 330.3 166.023 332.71 166.78C335.627 167.693 338.58 168.446 341.457 169.49C344.657 170.654 347.775 172.032 350.79 173.616C351.537 174.01 352.277 174.414 353.01 174.83C353.124 174.891 353.258 174.905 353.382 174.87C353.507 174.835 353.613 174.753 353.678 174.641C353.743 174.529 353.763 174.396 353.732 174.27C353.701 174.145 353.623 174.036 353.513 173.966C347.836 170.778 341.791 168.292 335.513 166.563C331.213 165.36 325.35 163.84 323.937 158.953C323.007 155.73 324.373 152.326 325.387 149.286L328.783 139.106L332.177 128.926C332.707 127.343 333.177 125.733 333.783 124.18C334.247 122.983 334.953 121.77 336.293 121.463C337.046 121.339 337.817 121.364 338.56 121.536C339.377 121.68 340.19 121.846 341 122.016C342.669 122.37 344.328 122.766 345.977 123.206C349.252 124.083 352.479 125.132 355.643 126.35C356.426 126.652 357.203 126.964 357.977 127.286C358.57 127.533 358.83 126.566 358.243 126.323V126.333Z" fill="black"/>
<path d="M338.333 126.223C338.466 126.223 338.593 126.17 338.687 126.076C338.781 125.982 338.833 125.855 338.833 125.723C338.833 125.59 338.781 125.463 338.687 125.369C338.593 125.275 338.466 125.223 338.333 125.223C338.201 125.223 338.074 125.275 337.98 125.369C337.886 125.463 337.833 125.59 337.833 125.723C337.833 125.855 337.886 125.982 337.98 126.076C338.074 126.17 338.201 126.223 338.333 126.223Z" fill="black"/>
<path d="M341.77 127.371C341.903 127.371 342.03 127.318 342.124 127.225C342.217 127.131 342.27 127.004 342.27 126.871C342.27 126.738 342.217 126.611 342.124 126.518C342.03 126.424 341.903 126.371 341.77 126.371C341.637 126.371 341.51 126.424 341.416 126.518C341.323 126.611 341.27 126.738 341.27 126.871C341.27 127.004 341.323 127.131 341.416 127.225C341.51 127.318 341.637 127.371 341.77 127.371Z" fill="black"/>
<path d="M345.37 128.512C345.503 128.512 345.63 128.459 345.724 128.365C345.817 128.272 345.87 128.144 345.87 128.012C345.87 127.879 345.817 127.752 345.724 127.658C345.63 127.564 345.503 127.512 345.37 127.512C345.238 127.512 345.11 127.564 345.017 127.658C344.923 127.752 344.87 127.879 344.87 128.012C344.87 128.144 344.923 128.272 345.017 128.365C345.11 128.459 345.238 128.512 345.37 128.512Z" fill="black"/>
<path d="M172.667 112.969C175.41 114.302 178.193 115.579 180.9 116.989C182.163 117.656 183.293 118.506 184.53 119.209C185.67 119.809 186.857 120.315 188.08 120.722C189.463 121.226 190.84 121.752 192.05 122.609C192.577 122.982 193.077 122.116 192.553 121.746C190.43 120.236 187.82 119.769 185.523 118.606C184.273 117.972 183.167 117.092 181.943 116.416C180.647 115.702 179.277 115.082 177.963 114.436L173.17 112.102C172.593 111.822 172.087 112.682 172.667 112.966V112.969Z" fill="black"/>
<path d="M338.92 142.291C338.587 145.001 337.357 147.524 336.79 150.198C336.731 150.371 336.731 150.558 336.79 150.731C336.891 150.889 337.044 151.007 337.223 151.064C337.843 151.347 338.478 151.591 339.127 151.798C339.242 151.846 339.37 151.859 339.493 151.834C339.66 151.788 339.757 151.618 339.827 151.464C341.076 149.019 342.107 146.468 342.907 143.841C342.961 143.699 342.981 143.546 342.963 143.394C342.91 143.144 342.663 142.988 342.433 142.871C341.47 142.376 340.433 142.039 339.363 141.871" fill="white"/>
<path d="M338.44 142.159C338.19 143.995 337.567 145.739 337.01 147.492C336.701 148.373 336.458 149.275 336.283 150.192C336.123 151.192 336.903 151.476 337.677 151.796C338.32 152.059 339.417 152.692 340.027 152.079C340.281 151.76 340.482 151.402 340.623 151.019C340.84 150.579 341.05 150.132 341.25 149.685C342.019 147.969 342.687 146.21 343.25 144.415C343.39 143.975 343.583 143.482 343.36 143.039C343.135 142.699 342.807 142.442 342.423 142.305C341.496 141.861 340.511 141.549 339.497 141.379C338.867 141.276 338.597 142.239 339.23 142.345C339.959 142.461 340.673 142.656 341.36 142.926C341.679 143.04 341.986 143.183 342.28 143.352C342.433 143.445 342.45 143.466 342.443 143.632C342.407 143.835 342.346 144.033 342.263 144.222C341.8 145.687 341.262 147.128 340.653 148.539C340.347 149.252 340.02 149.958 339.673 150.655L339.43 151.142C339.37 151.259 339.247 151.359 339.373 151.349C339.202 151.32 339.036 151.266 338.88 151.189C338.657 151.112 338.437 151.032 338.213 150.946C337.99 150.859 337.857 150.802 337.683 150.725C337.58 150.682 337.323 150.619 337.263 150.526C337.137 150.329 337.387 149.726 337.443 149.509C337.633 148.772 337.86 148.045 338.11 147.322C338.684 145.728 339.116 144.086 339.4 142.415C339.431 142.288 339.412 142.153 339.347 142.039C339.282 141.925 339.176 141.84 339.05 141.802C338.922 141.767 338.786 141.785 338.671 141.85C338.556 141.916 338.472 142.025 338.437 142.152L338.44 142.159Z" fill="black"/>
<path d="M344.24 153.228C344.037 151.968 344.573 150.715 345.07 149.542L348.633 141.368C348.747 141.112 348.89 140.828 349.163 140.762C349.283 140.751 349.403 140.763 349.517 140.799C349.632 140.834 349.738 140.892 349.83 140.968C350.703 141.526 351.558 142.111 352.393 142.722C352.528 142.806 352.642 142.92 352.727 143.055C352.913 143.388 352.703 143.802 352.503 144.128C350.665 147.131 349.138 150.313 347.943 153.625C347.882 153.907 347.712 154.154 347.47 154.312C347.299 154.377 347.113 154.393 346.933 154.358C345.987 154.253 345.072 153.96 344.24 153.498" fill="white"/>
<path d="M344.723 153.094C344.58 152.054 344.98 151.017 345.39 150.094C345.82 149.094 346.263 148.094 346.7 147.094L348.033 144.064L348.627 142.701L348.96 141.944C349.01 141.831 349.15 141.351 349.293 141.277C349.49 141.187 350.227 141.804 350.397 141.917C350.847 142.217 351.297 142.527 351.73 142.844C351.923 142.947 352.101 143.077 352.257 143.231C352.383 143.411 352.257 143.587 352.163 143.767C351.923 144.204 351.647 144.627 351.393 145.061C350.376 146.829 349.463 148.655 348.66 150.531C348.227 151.531 347.89 152.594 347.45 153.597C347.33 153.871 347.257 153.891 346.96 153.861C346.706 153.834 346.454 153.788 346.207 153.724C345.618 153.577 345.051 153.353 344.52 153.057C343.953 152.751 343.447 153.614 344.013 153.921C344.534 154.202 345.084 154.426 345.653 154.587C346.202 154.783 346.785 154.867 347.367 154.834C347.6 154.792 347.817 154.687 347.993 154.529C348.17 154.371 348.299 154.168 348.367 153.941C348.59 153.404 348.773 152.847 348.987 152.307C349.887 150.023 350.954 147.807 352.177 145.677C352.47 145.161 352.817 144.661 353.087 144.131C353.226 143.916 353.302 143.667 353.307 143.411C353.312 143.155 353.245 142.903 353.113 142.684C352.813 142.247 352.213 141.941 351.78 141.644C351.27 141.287 350.753 140.937 350.23 140.604C349.773 140.314 349.25 140.071 348.743 140.401C348.307 140.684 348.147 141.261 347.953 141.707L346.367 145.341C345.777 146.701 345.18 148.057 344.59 149.417C344.043 150.684 343.59 151.947 343.77 153.347C343.81 153.472 343.897 153.576 344.011 153.638C344.126 153.7 344.261 153.715 344.387 153.681C344.513 153.643 344.62 153.557 344.685 153.442C344.75 153.328 344.769 153.192 344.737 153.064L344.723 153.094Z" fill="black"/>
<path d="M174.49 126.781C175.973 127.312 177.409 127.965 178.783 128.735C179.343 129.048 179.85 128.185 179.286 127.871C177.836 127.061 176.319 126.374 174.753 125.818C174.689 125.797 174.621 125.789 174.553 125.795C174.486 125.801 174.42 125.82 174.36 125.852C174.3 125.885 174.248 125.928 174.206 125.982C174.163 126.035 174.132 126.096 174.114 126.161C174.096 126.227 174.092 126.295 174.101 126.362C174.111 126.429 174.134 126.494 174.169 126.552C174.204 126.61 174.251 126.66 174.306 126.7C174.361 126.739 174.424 126.767 174.49 126.781Z" fill="black"/>
<path d="M174.35 129.184C174.857 129.544 175.436 129.791 176.047 129.907C176.176 129.938 176.313 129.92 176.43 129.857C176.542 129.79 176.624 129.683 176.66 129.557C176.694 129.429 176.676 129.293 176.611 129.178C176.545 129.062 176.437 128.977 176.31 128.941C176.032 128.89 175.76 128.808 175.5 128.697L175.62 128.751C175.351 128.635 175.095 128.491 174.857 128.321C174.739 128.255 174.6 128.237 174.47 128.271C174.345 128.308 174.238 128.39 174.17 128.501C174.104 128.618 174.086 128.757 174.12 128.887C174.161 129.01 174.242 129.114 174.35 129.184Z" fill="black"/>
</g>
<defs>
<clipPath id="clip0_2042_26583">
<rect width="523" height="276" fill="white"/>
</clipPath>
</defs>
</svg>
